<?xml version="1.0" encoding="utf-8" standalone="no"?>
<!DOCTYPE svg PUBLIC "-//W3C//DTD SVG 1.1//EN"
  "http://www.w3.org/Graphics/SVG/1.1/DTD/svg11.dtd">
<svg xmlns:xlink="http://www.w3.org/1999/xlink" width="691.2pt" height="334.44pt" viewBox="0 0 691.2 334.44" xmlns="http://www.w3.org/2000/svg" version="1.1">
 <metadata>
  <rdf:RDF xmlns:dc="http://purl.org/dc/elements/1.1/" xmlns:cc="http://creativecommons.org/ns#" xmlns:rdf="http://www.w3.org/1999/02/22-rdf-syntax-ns#">
   <cc:Work>
    <dc:type rdf:resource="http://purl.org/dc/dcmitype/StillImage"/>
    <dc:date>2022-01-05T10:44:26.422251</dc:date>
    <dc:format>image/svg+xml</dc:format>
    <dc:creator>
     <cc:Agent>
      <dc:title>Matplotlib v3.5.0, https://matplotlib.org/</dc:title>
     </cc:Agent>
    </dc:creator>
   </cc:Work>
  </rdf:RDF>
 </metadata>
 <defs>
  <style type="text/css">*{stroke-linejoin: round; stroke-linecap: butt}</style>
 </defs>
 <g id="figure_1">
  <g id="patch_1">
   <path d="M 0 334.44 
L 691.2 334.44 
L 691.2 0 
L 0 0 
z
" style="fill: #ffffff"/>
  </g>
  <g id="axes_1">
   <g id="patch_2">
    <path d="M 53.292185 274.84495 
L 680.4 274.84495 
L 680.4 21.621133 
L 53.292185 21.621133 
z
" style="fill: #ffffff"/>
   </g>
   <g id="line2d_1">
    <path d="M 110.301986 274.84495 
L 110.301986 21.621133 
" clip-path="url(#peaa069d9f8)" style="fill: none; stroke-dasharray: 1.85,0.8; stroke-dashoffset: 0; stroke: #a9a9a9; stroke-width: 0.5"/>
   </g>
   <g id="line2d_2">
    <path d="M 224.321589 274.84495 
L 224.321589 21.621133 
" clip-path="url(#peaa069d9f8)" style="fill: none; stroke-dasharray: 1.85,0.8; stroke-dashoffset: 0; stroke: #a9a9a9; stroke-width: 0.5"/>
   </g>
   <g id="line2d_3">
    <path d="M 338.341192 274.84495 
L 338.341192 21.621133 
" clip-path="url(#peaa069d9f8)" style="fill: none; stroke-dasharray: 1.85,0.8; stroke-dashoffset: 0; stroke: #a9a9a9; stroke-width: 0.5"/>
   </g>
   <g id="line2d_4">
    <path d="M 452.360794 274.84495 
L 452.360794 21.621133 
" clip-path="url(#peaa069d9f8)" style="fill: none; stroke-dasharray: 1.85,0.8; stroke-dashoffset: 0; stroke: #a9a9a9; stroke-width: 0.5"/>
   </g>
   <g id="line2d_5">
    <path d="M 566.380397 274.84495 
L 566.380397 21.621133 
" clip-path="url(#peaa069d9f8)" style="fill: none; stroke-dasharray: 1.85,0.8; stroke-dashoffset: 0; stroke: #a9a9a9; stroke-width: 0.5"/>
   </g>
   <g id="matplotlib.axis_1">
    <g id="xtick_1">
     <g id="line2d_6">
      <defs>
       <path id="m7c8864fcaa" d="M 0 0 
L 0 3.5 
" style="stroke: #000000; stroke-width: 0.8"/>
      </defs>
      <g>
       <use xlink:href="#m7c8864fcaa" x="67.544635" y="274.84495" style="stroke: #000000; stroke-width: 0.8"/>
      </g>
     </g>
     <g id="text_1">
      <!-- PERF -->
      <g transform="translate(48.362154 304.929776)rotate(-45)scale(0.1 -0.1)">
       <defs>
        <path id="DejaVuSans-50" d="M 1259 4147 
L 1259 2394 
L 2053 2394 
Q 2494 2394 2734 2622 
Q 2975 2850 2975 3272 
Q 2975 3691 2734 3919 
Q 2494 4147 2053 4147 
L 1259 4147 
z
M 628 4666 
L 2053 4666 
Q 2838 4666 3239 4311 
Q 3641 3956 3641 3272 
Q 3641 2581 3239 2228 
Q 2838 1875 2053 1875 
L 1259 1875 
L 1259 0 
L 628 0 
L 628 4666 
z
" transform="scale(0.015625)"/>
        <path id="DejaVuSans-45" d="M 628 4666 
L 3578 4666 
L 3578 4134 
L 1259 4134 
L 1259 2753 
L 3481 2753 
L 3481 2222 
L 1259 2222 
L 1259 531 
L 3634 531 
L 3634 0 
L 628 0 
L 628 4666 
z
" transform="scale(0.015625)"/>
        <path id="DejaVuSans-52" d="M 2841 2188 
Q 3044 2119 3236 1894 
Q 3428 1669 3622 1275 
L 4263 0 
L 3584 0 
L 2988 1197 
Q 2756 1666 2539 1819 
Q 2322 1972 1947 1972 
L 1259 1972 
L 1259 0 
L 628 0 
L 628 4666 
L 2053 4666 
Q 2853 4666 3247 4331 
Q 3641 3997 3641 3322 
Q 3641 2881 3436 2590 
Q 3231 2300 2841 2188 
z
M 1259 4147 
L 1259 2491 
L 2053 2491 
Q 2509 2491 2742 2702 
Q 2975 2913 2975 3322 
Q 2975 3731 2742 3939 
Q 2509 4147 2053 4147 
L 1259 4147 
z
" transform="scale(0.015625)"/>
        <path id="DejaVuSans-46" d="M 628 4666 
L 3309 4666 
L 3309 4134 
L 1259 4134 
L 1259 2759 
L 3109 2759 
L 3109 2228 
L 1259 2228 
L 1259 0 
L 628 0 
L 628 4666 
z
" transform="scale(0.015625)"/>
       </defs>
       <use xlink:href="#DejaVuSans-50"/>
       <use xlink:href="#DejaVuSans-45" x="60.302734"/>
       <use xlink:href="#DejaVuSans-52" x="123.486328"/>
       <use xlink:href="#DejaVuSans-46" x="192.96875"/>
      </g>
     </g>
    </g>
    <g id="xtick_2">
     <g id="line2d_7">
      <g>
       <use xlink:href="#m7c8864fcaa" x="96.049536" y="274.84495" style="stroke: #000000; stroke-width: 0.8"/>
      </g>
     </g>
     <g id="text_2">
      <!-- NONE -->
      <g transform="translate(73.964602 307.832229)rotate(-45)scale(0.1 -0.1)">
       <defs>
        <path id="DejaVuSans-4e" d="M 628 4666 
L 1478 4666 
L 3547 763 
L 3547 4666 
L 4159 4666 
L 4159 0 
L 3309 0 
L 1241 3903 
L 1241 0 
L 628 0 
L 628 4666 
z
" transform="scale(0.015625)"/>
        <path id="DejaVuSans-4f" d="M 2522 4238 
Q 1834 4238 1429 3725 
Q 1025 3213 1025 2328 
Q 1025 1447 1429 934 
Q 1834 422 2522 422 
Q 3209 422 3611 934 
Q 4013 1447 4013 2328 
Q 4013 3213 3611 3725 
Q 3209 4238 2522 4238 
z
M 2522 4750 
Q 3503 4750 4090 4092 
Q 4678 3434 4678 2328 
Q 4678 1225 4090 567 
Q 3503 -91 2522 -91 
Q 1538 -91 948 565 
Q 359 1222 359 2328 
Q 359 3434 948 4092 
Q 1538 4750 2522 4750 
z
" transform="scale(0.015625)"/>
       </defs>
       <use xlink:href="#DejaVuSans-4e"/>
       <use xlink:href="#DejaVuSans-4f" x="74.804688"/>
       <use xlink:href="#DejaVuSans-4e" x="153.515625"/>
       <use xlink:href="#DejaVuSans-45" x="228.320312"/>
      </g>
     </g>
    </g>
    <g id="xtick_3">
     <g id="line2d_8">
      <g>
       <use xlink:href="#m7c8864fcaa" x="124.554436" y="274.84495" style="stroke: #000000; stroke-width: 0.8"/>
      </g>
     </g>
     <g id="text_3">
      <!-- AFF0 -->
      <g transform="translate(105.613918 304.687813)rotate(-45)scale(0.1 -0.1)">
       <defs>
        <path id="DejaVuSans-41" d="M 2188 4044 
L 1331 1722 
L 3047 1722 
L 2188 4044 
z
M 1831 4666 
L 2547 4666 
L 4325 0 
L 3669 0 
L 3244 1197 
L 1141 1197 
L 716 0 
L 50 0 
L 1831 4666 
z
" transform="scale(0.015625)"/>
        <path id="DejaVuSans-30" d="M 2034 4250 
Q 1547 4250 1301 3770 
Q 1056 3291 1056 2328 
Q 1056 1369 1301 889 
Q 1547 409 2034 409 
Q 2525 409 2770 889 
Q 3016 1369 3016 2328 
Q 3016 3291 2770 3770 
Q 2525 4250 2034 4250 
z
M 2034 4750 
Q 2819 4750 3233 4129 
Q 3647 3509 3647 2328 
Q 3647 1150 3233 529 
Q 2819 -91 2034 -91 
Q 1250 -91 836 529 
Q 422 1150 422 2328 
Q 422 3509 836 4129 
Q 1250 4750 2034 4750 
z
" transform="scale(0.015625)"/>
       </defs>
       <use xlink:href="#DejaVuSans-41"/>
       <use xlink:href="#DejaVuSans-46" x="68.408203"/>
       <use xlink:href="#DejaVuSans-46" x="125.927734"/>
       <use xlink:href="#DejaVuSans-30" x="183.447266"/>
      </g>
     </g>
    </g>
    <g id="xtick_4">
     <g id="line2d_9">
      <g>
       <use xlink:href="#m7c8864fcaa" x="153.059337" y="274.84495" style="stroke: #000000; stroke-width: 0.8"/>
      </g>
     </g>
     <g id="text_4">
      <!-- AFF1 -->
      <g transform="translate(134.118819 304.687813)rotate(-45)scale(0.1 -0.1)">
       <defs>
        <path id="DejaVuSans-31" d="M 794 531 
L 1825 531 
L 1825 4091 
L 703 3866 
L 703 4441 
L 1819 4666 
L 2450 4666 
L 2450 531 
L 3481 531 
L 3481 0 
L 794 0 
L 794 531 
z
" transform="scale(0.015625)"/>
       </defs>
       <use xlink:href="#DejaVuSans-41"/>
       <use xlink:href="#DejaVuSans-46" x="68.408203"/>
       <use xlink:href="#DejaVuSans-46" x="125.927734"/>
       <use xlink:href="#DejaVuSans-31" x="183.447266"/>
      </g>
     </g>
    </g>
    <g id="xtick_5">
     <g id="line2d_10">
      <g>
       <use xlink:href="#m7c8864fcaa" x="181.564238" y="274.84495" style="stroke: #000000; stroke-width: 0.8"/>
      </g>
     </g>
     <g id="text_5">
      <!-- AFF2 -->
      <g transform="translate(162.62372 304.687813)rotate(-45)scale(0.1 -0.1)">
       <defs>
        <path id="DejaVuSans-32" d="M 1228 531 
L 3431 531 
L 3431 0 
L 469 0 
L 469 531 
Q 828 903 1448 1529 
Q 2069 2156 2228 2338 
Q 2531 2678 2651 2914 
Q 2772 3150 2772 3378 
Q 2772 3750 2511 3984 
Q 2250 4219 1831 4219 
Q 1534 4219 1204 4116 
Q 875 4013 500 3803 
L 500 4441 
Q 881 4594 1212 4672 
Q 1544 4750 1819 4750 
Q 2544 4750 2975 4387 
Q 3406 4025 3406 3419 
Q 3406 3131 3298 2873 
Q 3191 2616 2906 2266 
Q 2828 2175 2409 1742 
Q 1991 1309 1228 531 
z
" transform="scale(0.015625)"/>
       </defs>
       <use xlink:href="#DejaVuSans-41"/>
       <use xlink:href="#DejaVuSans-46" x="68.408203"/>
       <use xlink:href="#DejaVuSans-46" x="125.927734"/>
       <use xlink:href="#DejaVuSans-32" x="183.447266"/>
      </g>
     </g>
    </g>
    <g id="xtick_6">
     <g id="line2d_11">
      <g>
       <use xlink:href="#m7c8864fcaa" x="210.069139" y="274.84495" style="stroke: #000000; stroke-width: 0.8"/>
      </g>
     </g>
     <g id="text_6">
      <!-- AFF3 -->
      <g transform="translate(191.128621 304.687813)rotate(-45)scale(0.1 -0.1)">
       <defs>
        <path id="DejaVuSans-33" d="M 2597 2516 
Q 3050 2419 3304 2112 
Q 3559 1806 3559 1356 
Q 3559 666 3084 287 
Q 2609 -91 1734 -91 
Q 1441 -91 1130 -33 
Q 819 25 488 141 
L 488 750 
Q 750 597 1062 519 
Q 1375 441 1716 441 
Q 2309 441 2620 675 
Q 2931 909 2931 1356 
Q 2931 1769 2642 2001 
Q 2353 2234 1838 2234 
L 1294 2234 
L 1294 2753 
L 1863 2753 
Q 2328 2753 2575 2939 
Q 2822 3125 2822 3475 
Q 2822 3834 2567 4026 
Q 2313 4219 1838 4219 
Q 1578 4219 1281 4162 
Q 984 4106 628 3988 
L 628 4550 
Q 988 4650 1302 4700 
Q 1616 4750 1894 4750 
Q 2613 4750 3031 4423 
Q 3450 4097 3450 3541 
Q 3450 3153 3228 2886 
Q 3006 2619 2597 2516 
z
" transform="scale(0.015625)"/>
       </defs>
       <use xlink:href="#DejaVuSans-41"/>
       <use xlink:href="#DejaVuSans-46" x="68.408203"/>
       <use xlink:href="#DejaVuSans-46" x="125.927734"/>
       <use xlink:href="#DejaVuSans-33" x="183.447266"/>
      </g>
     </g>
    </g>
    <g id="xtick_7">
     <g id="line2d_12">
      <g>
       <use xlink:href="#m7c8864fcaa" x="238.574039" y="274.84495" style="stroke: #000000; stroke-width: 0.8"/>
      </g>
     </g>
     <g id="text_7">
      <!-- VAN0 -->
      <g transform="translate(218.091145 306.23019)rotate(-45)scale(0.1 -0.1)">
       <defs>
        <path id="DejaVuSans-56" d="M 1831 0 
L 50 4666 
L 709 4666 
L 2188 738 
L 3669 4666 
L 4325 4666 
L 2547 0 
L 1831 0 
z
" transform="scale(0.015625)"/>
       </defs>
       <use xlink:href="#DejaVuSans-56"/>
       <use xlink:href="#DejaVuSans-41" x="62.033203"/>
       <use xlink:href="#DejaVuSans-4e" x="130.441406"/>
       <use xlink:href="#DejaVuSans-30" x="205.246094"/>
      </g>
     </g>
    </g>
    <g id="xtick_8">
     <g id="line2d_13">
      <g>
       <use xlink:href="#m7c8864fcaa" x="267.07894" y="274.84495" style="stroke: #000000; stroke-width: 0.8"/>
      </g>
     </g>
     <g id="text_8">
      <!-- VAN1 -->
      <g transform="translate(246.596045 306.23019)rotate(-45)scale(0.1 -0.1)">
       <use xlink:href="#DejaVuSans-56"/>
       <use xlink:href="#DejaVuSans-41" x="62.033203"/>
       <use xlink:href="#DejaVuSans-4e" x="130.441406"/>
       <use xlink:href="#DejaVuSans-31" x="205.246094"/>
      </g>
     </g>
    </g>
    <g id="xtick_9">
     <g id="line2d_14">
      <g>
       <use xlink:href="#m7c8864fcaa" x="295.583841" y="274.84495" style="stroke: #000000; stroke-width: 0.8"/>
      </g>
     </g>
     <g id="text_9">
      <!-- VAN2 -->
      <g transform="translate(275.100946 306.23019)rotate(-45)scale(0.1 -0.1)">
       <use xlink:href="#DejaVuSans-56"/>
       <use xlink:href="#DejaVuSans-41" x="62.033203"/>
       <use xlink:href="#DejaVuSans-4e" x="130.441406"/>
       <use xlink:href="#DejaVuSans-32" x="205.246094"/>
      </g>
     </g>
    </g>
    <g id="xtick_10">
     <g id="line2d_15">
      <g>
       <use xlink:href="#m7c8864fcaa" x="324.088741" y="274.84495" style="stroke: #000000; stroke-width: 0.8"/>
      </g>
     </g>
     <g id="text_10">
      <!-- VAN3 -->
      <g transform="translate(303.605847 306.23019)rotate(-45)scale(0.1 -0.1)">
       <use xlink:href="#DejaVuSans-56"/>
       <use xlink:href="#DejaVuSans-41" x="62.033203"/>
       <use xlink:href="#DejaVuSans-4e" x="130.441406"/>
       <use xlink:href="#DejaVuSans-33" x="205.246094"/>
      </g>
     </g>
    </g>
    <g id="xtick_11">
     <g id="line2d_16">
      <g>
       <use xlink:href="#m7c8864fcaa" x="352.593642" y="274.84495" style="stroke: #000000; stroke-width: 0.8"/>
      </g>
     </g>
     <g id="text_11">
      <!-- CHE0 -->
      <g transform="translate(331.900825 306.440112)rotate(-45)scale(0.1 -0.1)">
       <defs>
        <path id="DejaVuSans-43" d="M 4122 4306 
L 4122 3641 
Q 3803 3938 3442 4084 
Q 3081 4231 2675 4231 
Q 1875 4231 1450 3742 
Q 1025 3253 1025 2328 
Q 1025 1406 1450 917 
Q 1875 428 2675 428 
Q 3081 428 3442 575 
Q 3803 722 4122 1019 
L 4122 359 
Q 3791 134 3420 21 
Q 3050 -91 2638 -91 
Q 1578 -91 968 557 
Q 359 1206 359 2328 
Q 359 3453 968 4101 
Q 1578 4750 2638 4750 
Q 3056 4750 3426 4639 
Q 3797 4528 4122 4306 
z
" transform="scale(0.015625)"/>
        <path id="DejaVuSans-48" d="M 628 4666 
L 1259 4666 
L 1259 2753 
L 3553 2753 
L 3553 4666 
L 4184 4666 
L 4184 0 
L 3553 0 
L 3553 2222 
L 1259 2222 
L 1259 0 
L 628 0 
L 628 4666 
z
" transform="scale(0.015625)"/>
       </defs>
       <use xlink:href="#DejaVuSans-43"/>
       <use xlink:href="#DejaVuSans-48" x="69.824219"/>
       <use xlink:href="#DejaVuSans-45" x="145.019531"/>
       <use xlink:href="#DejaVuSans-30" x="208.203125"/>
      </g>
     </g>
    </g>
    <g id="xtick_12">
     <g id="line2d_17">
      <g>
       <use xlink:href="#m7c8864fcaa" x="381.098543" y="274.84495" style="stroke: #000000; stroke-width: 0.8"/>
      </g>
     </g>
     <g id="text_12">
      <!-- CHE1 -->
      <g transform="translate(360.405726 306.440112)rotate(-45)scale(0.1 -0.1)">
       <use xlink:href="#DejaVuSans-43"/>
       <use xlink:href="#DejaVuSans-48" x="69.824219"/>
       <use xlink:href="#DejaVuSans-45" x="145.019531"/>
       <use xlink:href="#DejaVuSans-31" x="208.203125"/>
      </g>
     </g>
    </g>
    <g id="xtick_13">
     <g id="line2d_18">
      <g>
       <use xlink:href="#m7c8864fcaa" x="409.603443" y="274.84495" style="stroke: #000000; stroke-width: 0.8"/>
      </g>
     </g>
     <g id="text_13">
      <!-- CHE2 -->
      <g transform="translate(388.910626 306.440112)rotate(-45)scale(0.1 -0.1)">
       <use xlink:href="#DejaVuSans-43"/>
       <use xlink:href="#DejaVuSans-48" x="69.824219"/>
       <use xlink:href="#DejaVuSans-45" x="145.019531"/>
       <use xlink:href="#DejaVuSans-32" x="208.203125"/>
      </g>
     </g>
    </g>
    <g id="xtick_14">
     <g id="line2d_19">
      <g>
       <use xlink:href="#m7c8864fcaa" x="438.108344" y="274.84495" style="stroke: #000000; stroke-width: 0.8"/>
      </g>
     </g>
     <g id="text_14">
      <!-- CHE3 -->
      <g transform="translate(417.415527 306.440112)rotate(-45)scale(0.1 -0.1)">
       <use xlink:href="#DejaVuSans-43"/>
       <use xlink:href="#DejaVuSans-48" x="69.824219"/>
       <use xlink:href="#DejaVuSans-45" x="145.019531"/>
       <use xlink:href="#DejaVuSans-33" x="208.203125"/>
      </g>
     </g>
    </g>
    <g id="xtick_15">
     <g id="line2d_20">
      <g>
       <use xlink:href="#m7c8864fcaa" x="466.613245" y="274.84495" style="stroke: #000000; stroke-width: 0.8"/>
      </g>
     </g>
     <g id="text_15">
      <!-- FIN0 -->
      <g transform="translate(449.20074 303.1598)rotate(-45)scale(0.1 -0.1)">
       <defs>
        <path id="DejaVuSans-49" d="M 628 4666 
L 1259 4666 
L 1259 0 
L 628 0 
L 628 4666 
z
" transform="scale(0.015625)"/>
       </defs>
       <use xlink:href="#DejaVuSans-46"/>
       <use xlink:href="#DejaVuSans-49" x="57.519531"/>
       <use xlink:href="#DejaVuSans-4e" x="87.011719"/>
       <use xlink:href="#DejaVuSans-30" x="161.816406"/>
      </g>
     </g>
    </g>
    <g id="xtick_16">
     <g id="line2d_21">
      <g>
       <use xlink:href="#m7c8864fcaa" x="495.118145" y="274.84495" style="stroke: #000000; stroke-width: 0.8"/>
      </g>
     </g>
     <g id="text_16">
      <!-- FIN1 -->
      <g transform="translate(477.705641 303.1598)rotate(-45)scale(0.1 -0.1)">
       <use xlink:href="#DejaVuSans-46"/>
       <use xlink:href="#DejaVuSans-49" x="57.519531"/>
       <use xlink:href="#DejaVuSans-4e" x="87.011719"/>
       <use xlink:href="#DejaVuSans-31" x="161.816406"/>
      </g>
     </g>
    </g>
    <g id="xtick_17">
     <g id="line2d_22">
      <g>
       <use xlink:href="#m7c8864fcaa" x="523.623046" y="274.84495" style="stroke: #000000; stroke-width: 0.8"/>
      </g>
     </g>
     <g id="text_17">
      <!-- FIN2 -->
      <g transform="translate(506.210542 303.1598)rotate(-45)scale(0.1 -0.1)">
       <use xlink:href="#DejaVuSans-46"/>
       <use xlink:href="#DejaVuSans-49" x="57.519531"/>
       <use xlink:href="#DejaVuSans-4e" x="87.011719"/>
       <use xlink:href="#DejaVuSans-32" x="161.816406"/>
      </g>
     </g>
    </g>
    <g id="xtick_18">
     <g id="line2d_23">
      <g>
       <use xlink:href="#m7c8864fcaa" x="552.127947" y="274.84495" style="stroke: #000000; stroke-width: 0.8"/>
      </g>
     </g>
     <g id="text_18">
      <!-- FIN3 -->
      <g transform="translate(534.715442 303.1598)rotate(-45)scale(0.1 -0.1)">
       <use xlink:href="#DejaVuSans-46"/>
       <use xlink:href="#DejaVuSans-49" x="57.519531"/>
       <use xlink:href="#DejaVuSans-4e" x="87.011719"/>
       <use xlink:href="#DejaVuSans-33" x="161.816406"/>
      </g>
     </g>
    </g>
    <g id="xtick_19">
     <g id="line2d_24">
      <g>
       <use xlink:href="#m7c8864fcaa" x="580.632848" y="274.84495" style="stroke: #000000; stroke-width: 0.8"/>
      </g>
     </g>
     <g id="text_19">
      <!-- TPS0 -->
      <g transform="translate(561.591788 304.788355)rotate(-45)scale(0.1 -0.1)">
       <defs>
        <path id="DejaVuSans-54" d="M -19 4666 
L 3928 4666 
L 3928 4134 
L 2272 4134 
L 2272 0 
L 1638 0 
L 1638 4134 
L -19 4134 
L -19 4666 
z
" transform="scale(0.015625)"/>
        <path id="DejaVuSans-53" d="M 3425 4513 
L 3425 3897 
Q 3066 4069 2747 4153 
Q 2428 4238 2131 4238 
Q 1616 4238 1336 4038 
Q 1056 3838 1056 3469 
Q 1056 3159 1242 3001 
Q 1428 2844 1947 2747 
L 2328 2669 
Q 3034 2534 3370 2195 
Q 3706 1856 3706 1288 
Q 3706 609 3251 259 
Q 2797 -91 1919 -91 
Q 1588 -91 1214 -16 
Q 841 59 441 206 
L 441 856 
Q 825 641 1194 531 
Q 1563 422 1919 422 
Q 2459 422 2753 634 
Q 3047 847 3047 1241 
Q 3047 1584 2836 1778 
Q 2625 1972 2144 2069 
L 1759 2144 
Q 1053 2284 737 2584 
Q 422 2884 422 3419 
Q 422 4038 858 4394 
Q 1294 4750 2059 4750 
Q 2388 4750 2728 4690 
Q 3069 4631 3425 4513 
z
" transform="scale(0.015625)"/>
       </defs>
       <use xlink:href="#DejaVuSans-54"/>
       <use xlink:href="#DejaVuSans-50" x="61.083984"/>
       <use xlink:href="#DejaVuSans-53" x="121.386719"/>
       <use xlink:href="#DejaVuSans-30" x="184.863281"/>
      </g>
     </g>
    </g>
    <g id="xtick_20">
     <g id="line2d_25">
      <g>
       <use xlink:href="#m7c8864fcaa" x="609.137748" y="274.84495" style="stroke: #000000; stroke-width: 0.8"/>
      </g>
     </g>
     <g id="text_20">
      <!-- TPS1 -->
      <g transform="translate(590.096688 304.788355)rotate(-45)scale(0.1 -0.1)">
       <use xlink:href="#DejaVuSans-54"/>
       <use xlink:href="#DejaVuSans-50" x="61.083984"/>
       <use xlink:href="#DejaVuSans-53" x="121.386719"/>
       <use xlink:href="#DejaVuSans-31" x="184.863281"/>
      </g>
     </g>
    </g>
    <g id="xtick_21">
     <g id="line2d_26">
      <g>
       <use xlink:href="#m7c8864fcaa" x="637.642649" y="274.84495" style="stroke: #000000; stroke-width: 0.8"/>
      </g>
     </g>
     <g id="text_21">
      <!-- TPS2 -->
      <g transform="translate(618.601589 304.788355)rotate(-45)scale(0.1 -0.1)">
       <use xlink:href="#DejaVuSans-54"/>
       <use xlink:href="#DejaVuSans-50" x="61.083984"/>
       <use xlink:href="#DejaVuSans-53" x="121.386719"/>
       <use xlink:href="#DejaVuSans-32" x="184.863281"/>
      </g>
     </g>
    </g>
    <g id="xtick_22">
     <g id="line2d_27">
      <g>
       <use xlink:href="#m7c8864fcaa" x="666.14755" y="274.84495" style="stroke: #000000; stroke-width: 0.8"/>
      </g>
     </g>
     <g id="text_22">
      <!-- TPS3 -->
      <g transform="translate(647.10649 304.788355)rotate(-45)scale(0.1 -0.1)">
       <use xlink:href="#DejaVuSans-54"/>
       <use xlink:href="#DejaVuSans-50" x="61.083984"/>
       <use xlink:href="#DejaVuSans-53" x="121.386719"/>
       <use xlink:href="#DejaVuSans-33" x="184.863281"/>
      </g>
     </g>
    </g>
    <g id="text_23">
     <!-- correction -->
     <g transform="translate(341.723436 320.901227)scale(0.1 -0.1)">
      <defs>
       <path id="DejaVuSans-63" d="M 3122 3366 
L 3122 2828 
Q 2878 2963 2633 3030 
Q 2388 3097 2138 3097 
Q 1578 3097 1268 2742 
Q 959 2388 959 1747 
Q 959 1106 1268 751 
Q 1578 397 2138 397 
Q 2388 397 2633 464 
Q 2878 531 3122 666 
L 3122 134 
Q 2881 22 2623 -34 
Q 2366 -91 2075 -91 
Q 1284 -91 818 406 
Q 353 903 353 1747 
Q 353 2603 823 3093 
Q 1294 3584 2113 3584 
Q 2378 3584 2631 3529 
Q 2884 3475 3122 3366 
z
" transform="scale(0.015625)"/>
       <path id="DejaVuSans-6f" d="M 1959 3097 
Q 1497 3097 1228 2736 
Q 959 2375 959 1747 
Q 959 1119 1226 758 
Q 1494 397 1959 397 
Q 2419 397 2687 759 
Q 2956 1122 2956 1747 
Q 2956 2369 2687 2733 
Q 2419 3097 1959 3097 
z
M 1959 3584 
Q 2709 3584 3137 3096 
Q 3566 2609 3566 1747 
Q 3566 888 3137 398 
Q 2709 -91 1959 -91 
Q 1206 -91 779 398 
Q 353 888 353 1747 
Q 353 2609 779 3096 
Q 1206 3584 1959 3584 
z
" transform="scale(0.015625)"/>
       <path id="DejaVuSans-72" d="M 2631 2963 
Q 2534 3019 2420 3045 
Q 2306 3072 2169 3072 
Q 1681 3072 1420 2755 
Q 1159 2438 1159 1844 
L 1159 0 
L 581 0 
L 581 3500 
L 1159 3500 
L 1159 2956 
Q 1341 3275 1631 3429 
Q 1922 3584 2338 3584 
Q 2397 3584 2469 3576 
Q 2541 3569 2628 3553 
L 2631 2963 
z
" transform="scale(0.015625)"/>
       <path id="DejaVuSans-65" d="M 3597 1894 
L 3597 1613 
L 953 1613 
Q 991 1019 1311 708 
Q 1631 397 2203 397 
Q 2534 397 2845 478 
Q 3156 559 3463 722 
L 3463 178 
Q 3153 47 2828 -22 
Q 2503 -91 2169 -91 
Q 1331 -91 842 396 
Q 353 884 353 1716 
Q 353 2575 817 3079 
Q 1281 3584 2069 3584 
Q 2775 3584 3186 3129 
Q 3597 2675 3597 1894 
z
M 3022 2063 
Q 3016 2534 2758 2815 
Q 2500 3097 2075 3097 
Q 1594 3097 1305 2825 
Q 1016 2553 972 2059 
L 3022 2063 
z
" transform="scale(0.015625)"/>
       <path id="DejaVuSans-74" d="M 1172 4494 
L 1172 3500 
L 2356 3500 
L 2356 3053 
L 1172 3053 
L 1172 1153 
Q 1172 725 1289 603 
Q 1406 481 1766 481 
L 2356 481 
L 2356 0 
L 1766 0 
Q 1100 0 847 248 
Q 594 497 594 1153 
L 594 3053 
L 172 3053 
L 172 3500 
L 594 3500 
L 594 4494 
L 1172 4494 
z
" transform="scale(0.015625)"/>
       <path id="DejaVuSans-69" d="M 603 3500 
L 1178 3500 
L 1178 0 
L 603 0 
L 603 3500 
z
M 603 4863 
L 1178 4863 
L 1178 4134 
L 603 4134 
L 603 4863 
z
" transform="scale(0.015625)"/>
       <path id="DejaVuSans-6e" d="M 3513 2113 
L 3513 0 
L 2938 0 
L 2938 2094 
Q 2938 2591 2744 2837 
Q 2550 3084 2163 3084 
Q 1697 3084 1428 2787 
Q 1159 2491 1159 1978 
L 1159 0 
L 581 0 
L 581 3500 
L 1159 3500 
L 1159 2956 
Q 1366 3272 1645 3428 
Q 1925 3584 2291 3584 
Q 2894 3584 3203 3211 
Q 3513 2838 3513 2113 
z
" transform="scale(0.015625)"/>
      </defs>
      <use xlink:href="#DejaVuSans-63"/>
      <use xlink:href="#DejaVuSans-6f" x="54.980469"/>
      <use xlink:href="#DejaVuSans-72" x="116.162109"/>
      <use xlink:href="#DejaVuSans-72" x="155.525391"/>
      <use xlink:href="#DejaVuSans-65" x="194.388672"/>
      <use xlink:href="#DejaVuSans-63" x="255.912109"/>
      <use xlink:href="#DejaVuSans-74" x="310.892578"/>
      <use xlink:href="#DejaVuSans-69" x="350.101562"/>
      <use xlink:href="#DejaVuSans-6f" x="377.884766"/>
      <use xlink:href="#DejaVuSans-6e" x="439.066406"/>
     </g>
    </g>
   </g>
   <g id="matplotlib.axis_2">
    <g id="ytick_1">
     <g id="line2d_28">
      <path d="M 53.292185 263.334776 
L 680.4 263.334776 
" clip-path="url(#peaa069d9f8)" style="fill: none; stroke: #b0b0b0; stroke-width: 0.25; stroke-linecap: square"/>
     </g>
     <g id="line2d_29">
      <defs>
       <path id="m61c58a946c" d="M 0 0 
L -3.5 0 
" style="stroke: #000000; stroke-width: 0.8"/>
      </defs>
      <g>
       <use xlink:href="#m61c58a946c" x="53.292185" y="263.334776" style="stroke: #000000; stroke-width: 0.8"/>
      </g>
     </g>
     <g id="text_24">
      <!-- $\mathdefault{10^{0}}$ -->
      <g transform="translate(28.692185 267.133995)scale(0.1 -0.1)">
       <use xlink:href="#DejaVuSans-31" transform="translate(0 0.765625)"/>
       <use xlink:href="#DejaVuSans-30" transform="translate(63.623047 0.765625)"/>
       <use xlink:href="#DejaVuSans-30" transform="translate(128.203125 39.046875)scale(0.7)"/>
      </g>
     </g>
    </g>
    <g id="ytick_2">
     <g id="line2d_30">
      <path d="M 53.292185 204.450105 
L 680.4 204.450105 
" clip-path="url(#peaa069d9f8)" style="fill: none; stroke: #b0b0b0; stroke-width: 0.25; stroke-linecap: square"/>
     </g>
     <g id="line2d_31">
      <g>
       <use xlink:href="#m61c58a946c" x="53.292185" y="204.450105" style="stroke: #000000; stroke-width: 0.8"/>
      </g>
     </g>
     <g id="text_25">
      <!-- $\mathdefault{10^{1}}$ -->
      <g transform="translate(28.692185 208.249324)scale(0.1 -0.1)">
       <use xlink:href="#DejaVuSans-31" transform="translate(0 0.684375)"/>
       <use xlink:href="#DejaVuSans-30" transform="translate(63.623047 0.684375)"/>
       <use xlink:href="#DejaVuSans-31" transform="translate(128.203125 38.965625)scale(0.7)"/>
      </g>
     </g>
    </g>
    <g id="ytick_3">
     <g id="line2d_32">
      <path d="M 53.292185 145.565434 
L 680.4 145.565434 
" clip-path="url(#peaa069d9f8)" style="fill: none; stroke: #b0b0b0; stroke-width: 0.25; stroke-linecap: square"/>
     </g>
     <g id="line2d_33">
      <g>
       <use xlink:href="#m61c58a946c" x="53.292185" y="145.565434" style="stroke: #000000; stroke-width: 0.8"/>
      </g>
     </g>
     <g id="text_26">
      <!-- $\mathdefault{10^{2}}$ -->
      <g transform="translate(28.692185 149.364653)scale(0.1 -0.1)">
       <use xlink:href="#DejaVuSans-31" transform="translate(0 0.765625)"/>
       <use xlink:href="#DejaVuSans-30" transform="translate(63.623047 0.765625)"/>
       <use xlink:href="#DejaVuSans-32" transform="translate(128.203125 39.046875)scale(0.7)"/>
      </g>
     </g>
    </g>
    <g id="ytick_4">
     <g id="line2d_34">
      <path d="M 53.292185 86.680763 
L 680.4 86.680763 
" clip-path="url(#peaa069d9f8)" style="fill: none; stroke: #b0b0b0; stroke-width: 0.25; stroke-linecap: square"/>
     </g>
     <g id="line2d_35">
      <g>
       <use xlink:href="#m61c58a946c" x="53.292185" y="86.680763" style="stroke: #000000; stroke-width: 0.8"/>
      </g>
     </g>
     <g id="text_27">
      <!-- $\mathdefault{10^{3}}$ -->
      <g transform="translate(28.692185 90.479982)scale(0.1 -0.1)">
       <use xlink:href="#DejaVuSans-31" transform="translate(0 0.765625)"/>
       <use xlink:href="#DejaVuSans-30" transform="translate(63.623047 0.765625)"/>
       <use xlink:href="#DejaVuSans-33" transform="translate(128.203125 39.046875)scale(0.7)"/>
      </g>
     </g>
    </g>
    <g id="ytick_5">
     <g id="line2d_36">
      <path d="M 53.292185 27.796093 
L 680.4 27.796093 
" clip-path="url(#peaa069d9f8)" style="fill: none; stroke: #b0b0b0; stroke-width: 0.25; stroke-linecap: square"/>
     </g>
     <g id="line2d_37">
      <g>
       <use xlink:href="#m61c58a946c" x="53.292185" y="27.796093" style="stroke: #000000; stroke-width: 0.8"/>
      </g>
     </g>
     <g id="text_28">
      <!-- $\mathdefault{10^{4}}$ -->
      <g transform="translate(28.692185 31.595311)scale(0.1 -0.1)">
       <defs>
        <path id="DejaVuSans-34" d="M 2419 4116 
L 825 1625 
L 2419 1625 
L 2419 4116 
z
M 2253 4666 
L 3047 4666 
L 3047 1625 
L 3713 1625 
L 3713 1100 
L 3047 1100 
L 3047 0 
L 2419 0 
L 2419 1100 
L 313 1100 
L 313 1709 
L 2253 4666 
z
" transform="scale(0.015625)"/>
       </defs>
       <use xlink:href="#DejaVuSans-31" transform="translate(0 0.684375)"/>
       <use xlink:href="#DejaVuSans-30" transform="translate(63.623047 0.684375)"/>
       <use xlink:href="#DejaVuSans-34" transform="translate(128.203125 38.965625)scale(0.7)"/>
      </g>
     </g>
    </g>
    <g id="ytick_6">
     <g id="line2d_38">
      <path d="M 53.292185 272.456127 
L 680.4 272.456127 
" clip-path="url(#peaa069d9f8)" style="fill: none; stroke-dasharray: 0.925,0.4; stroke-dashoffset: 0; stroke: #b0b0b0; stroke-width: 0.25"/>
     </g>
     <g id="line2d_39">
      <defs>
       <path id="m6c6f3fd3a4" d="M 0 0 
L -2 0 
" style="stroke: #000000; stroke-width: 0.6"/>
      </defs>
      <g>
       <use xlink:href="#m6c6f3fd3a4" x="53.292185" y="272.456127" style="stroke: #000000; stroke-width: 0.6"/>
      </g>
     </g>
    </g>
    <g id="ytick_7">
     <g id="line2d_40">
      <path d="M 53.292185 269.04129 
L 680.4 269.04129 
" clip-path="url(#peaa069d9f8)" style="fill: none; stroke-dasharray: 0.925,0.4; stroke-dashoffset: 0; stroke: #b0b0b0; stroke-width: 0.25"/>
     </g>
     <g id="line2d_41">
      <g>
       <use xlink:href="#m6c6f3fd3a4" x="53.292185" y="269.04129" style="stroke: #000000; stroke-width: 0.6"/>
      </g>
     </g>
    </g>
    <g id="ytick_8">
     <g id="line2d_42">
      <path d="M 53.292185 266.029191 
L 680.4 266.029191 
" clip-path="url(#peaa069d9f8)" style="fill: none; stroke-dasharray: 0.925,0.4; stroke-dashoffset: 0; stroke: #b0b0b0; stroke-width: 0.25"/>
     </g>
     <g id="line2d_43">
      <g>
       <use xlink:href="#m6c6f3fd3a4" x="53.292185" y="266.029191" style="stroke: #000000; stroke-width: 0.6"/>
      </g>
     </g>
    </g>
    <g id="ytick_9">
     <g id="line2d_44">
      <path d="M 53.292185 245.608724 
L 680.4 245.608724 
" clip-path="url(#peaa069d9f8)" style="fill: none; stroke-dasharray: 0.925,0.4; stroke-dashoffset: 0; stroke: #b0b0b0; stroke-width: 0.25"/>
     </g>
     <g id="line2d_45">
      <g>
       <use xlink:href="#m6c6f3fd3a4" x="53.292185" y="245.608724" style="stroke: #000000; stroke-width: 0.6"/>
      </g>
     </g>
    </g>
    <g id="ytick_10">
     <g id="line2d_46">
      <path d="M 53.292185 235.239648 
L 680.4 235.239648 
" clip-path="url(#peaa069d9f8)" style="fill: none; stroke-dasharray: 0.925,0.4; stroke-dashoffset: 0; stroke: #b0b0b0; stroke-width: 0.25"/>
     </g>
     <g id="line2d_47">
      <g>
       <use xlink:href="#m6c6f3fd3a4" x="53.292185" y="235.239648" style="stroke: #000000; stroke-width: 0.6"/>
      </g>
     </g>
    </g>
    <g id="ytick_11">
     <g id="line2d_48">
      <path d="M 53.292185 227.882672 
L 680.4 227.882672 
" clip-path="url(#peaa069d9f8)" style="fill: none; stroke-dasharray: 0.925,0.4; stroke-dashoffset: 0; stroke: #b0b0b0; stroke-width: 0.25"/>
     </g>
     <g id="line2d_49">
      <g>
       <use xlink:href="#m6c6f3fd3a4" x="53.292185" y="227.882672" style="stroke: #000000; stroke-width: 0.6"/>
      </g>
     </g>
    </g>
    <g id="ytick_12">
     <g id="line2d_50">
      <path d="M 53.292185 222.176158 
L 680.4 222.176158 
" clip-path="url(#peaa069d9f8)" style="fill: none; stroke-dasharray: 0.925,0.4; stroke-dashoffset: 0; stroke: #b0b0b0; stroke-width: 0.25"/>
     </g>
     <g id="line2d_51">
      <g>
       <use xlink:href="#m6c6f3fd3a4" x="53.292185" y="222.176158" style="stroke: #000000; stroke-width: 0.6"/>
      </g>
     </g>
    </g>
    <g id="ytick_13">
     <g id="line2d_52">
      <path d="M 53.292185 217.513596 
L 680.4 217.513596 
" clip-path="url(#peaa069d9f8)" style="fill: none; stroke-dasharray: 0.925,0.4; stroke-dashoffset: 0; stroke: #b0b0b0; stroke-width: 0.25"/>
     </g>
     <g id="line2d_53">
      <g>
       <use xlink:href="#m6c6f3fd3a4" x="53.292185" y="217.513596" style="stroke: #000000; stroke-width: 0.6"/>
      </g>
     </g>
    </g>
    <g id="ytick_14">
     <g id="line2d_54">
      <path d="M 53.292185 213.571456 
L 680.4 213.571456 
" clip-path="url(#peaa069d9f8)" style="fill: none; stroke-dasharray: 0.925,0.4; stroke-dashoffset: 0; stroke: #b0b0b0; stroke-width: 0.25"/>
     </g>
     <g id="line2d_55">
      <g>
       <use xlink:href="#m6c6f3fd3a4" x="53.292185" y="213.571456" style="stroke: #000000; stroke-width: 0.6"/>
      </g>
     </g>
    </g>
    <g id="ytick_15">
     <g id="line2d_56">
      <path d="M 53.292185 210.15662 
L 680.4 210.15662 
" clip-path="url(#peaa069d9f8)" style="fill: none; stroke-dasharray: 0.925,0.4; stroke-dashoffset: 0; stroke: #b0b0b0; stroke-width: 0.25"/>
     </g>
     <g id="line2d_57">
      <g>
       <use xlink:href="#m6c6f3fd3a4" x="53.292185" y="210.15662" style="stroke: #000000; stroke-width: 0.6"/>
      </g>
     </g>
    </g>
    <g id="ytick_16">
     <g id="line2d_58">
      <path d="M 53.292185 207.14452 
L 680.4 207.14452 
" clip-path="url(#peaa069d9f8)" style="fill: none; stroke-dasharray: 0.925,0.4; stroke-dashoffset: 0; stroke: #b0b0b0; stroke-width: 0.25"/>
     </g>
     <g id="line2d_59">
      <g>
       <use xlink:href="#m6c6f3fd3a4" x="53.292185" y="207.14452" style="stroke: #000000; stroke-width: 0.6"/>
      </g>
     </g>
    </g>
    <g id="ytick_17">
     <g id="line2d_60">
      <path d="M 53.292185 186.724053 
L 680.4 186.724053 
" clip-path="url(#peaa069d9f8)" style="fill: none; stroke-dasharray: 0.925,0.4; stroke-dashoffset: 0; stroke: #b0b0b0; stroke-width: 0.25"/>
     </g>
     <g id="line2d_61">
      <g>
       <use xlink:href="#m6c6f3fd3a4" x="53.292185" y="186.724053" style="stroke: #000000; stroke-width: 0.6"/>
      </g>
     </g>
    </g>
    <g id="ytick_18">
     <g id="line2d_62">
      <path d="M 53.292185 176.354977 
L 680.4 176.354977 
" clip-path="url(#peaa069d9f8)" style="fill: none; stroke-dasharray: 0.925,0.4; stroke-dashoffset: 0; stroke: #b0b0b0; stroke-width: 0.25"/>
     </g>
     <g id="line2d_63">
      <g>
       <use xlink:href="#m6c6f3fd3a4" x="53.292185" y="176.354977" style="stroke: #000000; stroke-width: 0.6"/>
      </g>
     </g>
    </g>
    <g id="ytick_19">
     <g id="line2d_64">
      <path d="M 53.292185 168.998001 
L 680.4 168.998001 
" clip-path="url(#peaa069d9f8)" style="fill: none; stroke-dasharray: 0.925,0.4; stroke-dashoffset: 0; stroke: #b0b0b0; stroke-width: 0.25"/>
     </g>
     <g id="line2d_65">
      <g>
       <use xlink:href="#m6c6f3fd3a4" x="53.292185" y="168.998001" style="stroke: #000000; stroke-width: 0.6"/>
      </g>
     </g>
    </g>
    <g id="ytick_20">
     <g id="line2d_66">
      <path d="M 53.292185 163.291487 
L 680.4 163.291487 
" clip-path="url(#peaa069d9f8)" style="fill: none; stroke-dasharray: 0.925,0.4; stroke-dashoffset: 0; stroke: #b0b0b0; stroke-width: 0.25"/>
     </g>
     <g id="line2d_67">
      <g>
       <use xlink:href="#m6c6f3fd3a4" x="53.292185" y="163.291487" style="stroke: #000000; stroke-width: 0.6"/>
      </g>
     </g>
    </g>
    <g id="ytick_21">
     <g id="line2d_68">
      <path d="M 53.292185 158.628925 
L 680.4 158.628925 
" clip-path="url(#peaa069d9f8)" style="fill: none; stroke-dasharray: 0.925,0.4; stroke-dashoffset: 0; stroke: #b0b0b0; stroke-width: 0.25"/>
     </g>
     <g id="line2d_69">
      <g>
       <use xlink:href="#m6c6f3fd3a4" x="53.292185" y="158.628925" style="stroke: #000000; stroke-width: 0.6"/>
      </g>
     </g>
    </g>
    <g id="ytick_22">
     <g id="line2d_70">
      <path d="M 53.292185 154.686785 
L 680.4 154.686785 
" clip-path="url(#peaa069d9f8)" style="fill: none; stroke-dasharray: 0.925,0.4; stroke-dashoffset: 0; stroke: #b0b0b0; stroke-width: 0.25"/>
     </g>
     <g id="line2d_71">
      <g>
       <use xlink:href="#m6c6f3fd3a4" x="53.292185" y="154.686785" style="stroke: #000000; stroke-width: 0.6"/>
      </g>
     </g>
    </g>
    <g id="ytick_23">
     <g id="line2d_72">
      <path d="M 53.292185 151.271949 
L 680.4 151.271949 
" clip-path="url(#peaa069d9f8)" style="fill: none; stroke-dasharray: 0.925,0.4; stroke-dashoffset: 0; stroke: #b0b0b0; stroke-width: 0.25"/>
     </g>
     <g id="line2d_73">
      <g>
       <use xlink:href="#m6c6f3fd3a4" x="53.292185" y="151.271949" style="stroke: #000000; stroke-width: 0.6"/>
      </g>
     </g>
    </g>
    <g id="ytick_24">
     <g id="line2d_74">
      <path d="M 53.292185 148.259849 
L 680.4 148.259849 
" clip-path="url(#peaa069d9f8)" style="fill: none; stroke-dasharray: 0.925,0.4; stroke-dashoffset: 0; stroke: #b0b0b0; stroke-width: 0.25"/>
     </g>
     <g id="line2d_75">
      <g>
       <use xlink:href="#m6c6f3fd3a4" x="53.292185" y="148.259849" style="stroke: #000000; stroke-width: 0.6"/>
      </g>
     </g>
    </g>
    <g id="ytick_25">
     <g id="line2d_76">
      <path d="M 53.292185 127.839382 
L 680.4 127.839382 
" clip-path="url(#peaa069d9f8)" style="fill: none; stroke-dasharray: 0.925,0.4; stroke-dashoffset: 0; stroke: #b0b0b0; stroke-width: 0.25"/>
     </g>
     <g id="line2d_77">
      <g>
       <use xlink:href="#m6c6f3fd3a4" x="53.292185" y="127.839382" style="stroke: #000000; stroke-width: 0.6"/>
      </g>
     </g>
    </g>
    <g id="ytick_26">
     <g id="line2d_78">
      <path d="M 53.292185 117.470306 
L 680.4 117.470306 
" clip-path="url(#peaa069d9f8)" style="fill: none; stroke-dasharray: 0.925,0.4; stroke-dashoffset: 0; stroke: #b0b0b0; stroke-width: 0.25"/>
     </g>
     <g id="line2d_79">
      <g>
       <use xlink:href="#m6c6f3fd3a4" x="53.292185" y="117.470306" style="stroke: #000000; stroke-width: 0.6"/>
      </g>
     </g>
    </g>
    <g id="ytick_27">
     <g id="line2d_80">
      <path d="M 53.292185 110.11333 
L 680.4 110.11333 
" clip-path="url(#peaa069d9f8)" style="fill: none; stroke-dasharray: 0.925,0.4; stroke-dashoffset: 0; stroke: #b0b0b0; stroke-width: 0.25"/>
     </g>
     <g id="line2d_81">
      <g>
       <use xlink:href="#m6c6f3fd3a4" x="53.292185" y="110.11333" style="stroke: #000000; stroke-width: 0.6"/>
      </g>
     </g>
    </g>
    <g id="ytick_28">
     <g id="line2d_82">
      <path d="M 53.292185 104.406816 
L 680.4 104.406816 
" clip-path="url(#peaa069d9f8)" style="fill: none; stroke-dasharray: 0.925,0.4; stroke-dashoffset: 0; stroke: #b0b0b0; stroke-width: 0.25"/>
     </g>
     <g id="line2d_83">
      <g>
       <use xlink:href="#m6c6f3fd3a4" x="53.292185" y="104.406816" style="stroke: #000000; stroke-width: 0.6"/>
      </g>
     </g>
    </g>
    <g id="ytick_29">
     <g id="line2d_84">
      <path d="M 53.292185 99.744254 
L 680.4 99.744254 
" clip-path="url(#peaa069d9f8)" style="fill: none; stroke-dasharray: 0.925,0.4; stroke-dashoffset: 0; stroke: #b0b0b0; stroke-width: 0.25"/>
     </g>
     <g id="line2d_85">
      <g>
       <use xlink:href="#m6c6f3fd3a4" x="53.292185" y="99.744254" style="stroke: #000000; stroke-width: 0.6"/>
      </g>
     </g>
    </g>
    <g id="ytick_30">
     <g id="line2d_86">
      <path d="M 53.292185 95.802114 
L 680.4 95.802114 
" clip-path="url(#peaa069d9f8)" style="fill: none; stroke-dasharray: 0.925,0.4; stroke-dashoffset: 0; stroke: #b0b0b0; stroke-width: 0.25"/>
     </g>
     <g id="line2d_87">
      <g>
       <use xlink:href="#m6c6f3fd3a4" x="53.292185" y="95.802114" style="stroke: #000000; stroke-width: 0.6"/>
      </g>
     </g>
    </g>
    <g id="ytick_31">
     <g id="line2d_88">
      <path d="M 53.292185 92.387278 
L 680.4 92.387278 
" clip-path="url(#peaa069d9f8)" style="fill: none; stroke-dasharray: 0.925,0.4; stroke-dashoffset: 0; stroke: #b0b0b0; stroke-width: 0.25"/>
     </g>
     <g id="line2d_89">
      <g>
       <use xlink:href="#m6c6f3fd3a4" x="53.292185" y="92.387278" style="stroke: #000000; stroke-width: 0.6"/>
      </g>
     </g>
    </g>
    <g id="ytick_32">
     <g id="line2d_90">
      <path d="M 53.292185 89.375178 
L 680.4 89.375178 
" clip-path="url(#peaa069d9f8)" style="fill: none; stroke-dasharray: 0.925,0.4; stroke-dashoffset: 0; stroke: #b0b0b0; stroke-width: 0.25"/>
     </g>
     <g id="line2d_91">
      <g>
       <use xlink:href="#m6c6f3fd3a4" x="53.292185" y="89.375178" style="stroke: #000000; stroke-width: 0.6"/>
      </g>
     </g>
    </g>
    <g id="ytick_33">
     <g id="line2d_92">
      <path d="M 53.292185 68.954711 
L 680.4 68.954711 
" clip-path="url(#peaa069d9f8)" style="fill: none; stroke-dasharray: 0.925,0.4; stroke-dashoffset: 0; stroke: #b0b0b0; stroke-width: 0.25"/>
     </g>
     <g id="line2d_93">
      <g>
       <use xlink:href="#m6c6f3fd3a4" x="53.292185" y="68.954711" style="stroke: #000000; stroke-width: 0.6"/>
      </g>
     </g>
    </g>
    <g id="ytick_34">
     <g id="line2d_94">
      <path d="M 53.292185 58.585635 
L 680.4 58.585635 
" clip-path="url(#peaa069d9f8)" style="fill: none; stroke-dasharray: 0.925,0.4; stroke-dashoffset: 0; stroke: #b0b0b0; stroke-width: 0.25"/>
     </g>
     <g id="line2d_95">
      <g>
       <use xlink:href="#m6c6f3fd3a4" x="53.292185" y="58.585635" style="stroke: #000000; stroke-width: 0.6"/>
      </g>
     </g>
    </g>
    <g id="ytick_35">
     <g id="line2d_96">
      <path d="M 53.292185 51.228659 
L 680.4 51.228659 
" clip-path="url(#peaa069d9f8)" style="fill: none; stroke-dasharray: 0.925,0.4; stroke-dashoffset: 0; stroke: #b0b0b0; stroke-width: 0.25"/>
     </g>
     <g id="line2d_97">
      <g>
       <use xlink:href="#m6c6f3fd3a4" x="53.292185" y="51.228659" style="stroke: #000000; stroke-width: 0.6"/>
      </g>
     </g>
    </g>
    <g id="ytick_36">
     <g id="line2d_98">
      <path d="M 53.292185 45.522145 
L 680.4 45.522145 
" clip-path="url(#peaa069d9f8)" style="fill: none; stroke-dasharray: 0.925,0.4; stroke-dashoffset: 0; stroke: #b0b0b0; stroke-width: 0.25"/>
     </g>
     <g id="line2d_99">
      <g>
       <use xlink:href="#m6c6f3fd3a4" x="53.292185" y="45.522145" style="stroke: #000000; stroke-width: 0.6"/>
      </g>
     </g>
    </g>
    <g id="ytick_37">
     <g id="line2d_100">
      <path d="M 53.292185 40.859583 
L 680.4 40.859583 
" clip-path="url(#peaa069d9f8)" style="fill: none; stroke-dasharray: 0.925,0.4; stroke-dashoffset: 0; stroke: #b0b0b0; stroke-width: 0.25"/>
     </g>
     <g id="line2d_101">
      <g>
       <use xlink:href="#m6c6f3fd3a4" x="53.292185" y="40.859583" style="stroke: #000000; stroke-width: 0.6"/>
      </g>
     </g>
    </g>
    <g id="ytick_38">
     <g id="line2d_102">
      <path d="M 53.292185 36.917444 
L 680.4 36.917444 
" clip-path="url(#peaa069d9f8)" style="fill: none; stroke-dasharray: 0.925,0.4; stroke-dashoffset: 0; stroke: #b0b0b0; stroke-width: 0.25"/>
     </g>
     <g id="line2d_103">
      <g>
       <use xlink:href="#m6c6f3fd3a4" x="53.292185" y="36.917444" style="stroke: #000000; stroke-width: 0.6"/>
      </g>
     </g>
    </g>
    <g id="ytick_39">
     <g id="line2d_104">
      <path d="M 53.292185 33.502607 
L 680.4 33.502607 
" clip-path="url(#peaa069d9f8)" style="fill: none; stroke-dasharray: 0.925,0.4; stroke-dashoffset: 0; stroke: #b0b0b0; stroke-width: 0.25"/>
     </g>
     <g id="line2d_105">
      <g>
       <use xlink:href="#m6c6f3fd3a4" x="53.292185" y="33.502607" style="stroke: #000000; stroke-width: 0.6"/>
      </g>
     </g>
    </g>
    <g id="ytick_40">
     <g id="line2d_106">
      <path d="M 53.292185 30.490507 
L 680.4 30.490507 
" clip-path="url(#peaa069d9f8)" style="fill: none; stroke-dasharray: 0.925,0.4; stroke-dashoffset: 0; stroke: #b0b0b0; stroke-width: 0.25"/>
     </g>
     <g id="line2d_107">
      <g>
       <use xlink:href="#m6c6f3fd3a4" x="53.292185" y="30.490507" style="stroke: #000000; stroke-width: 0.6"/>
      </g>
     </g>
    </g>
    <g id="text_29">
     <!-- # $ \overline{\Delta_{RGB}}_{,within} - \overline{\Delta_{RGB}}_{,within,NONE} &gt; 0 $ -->
     <g transform="translate(22.192185 228.983041)rotate(-90)scale(0.1 -0.1)">
      <defs>
       <path id="DejaVuSans-23" d="M 3272 2816 
L 2363 2816 
L 2100 1772 
L 3016 1772 
L 3272 2816 
z
M 2803 4594 
L 2478 3297 
L 3391 3297 
L 3719 4594 
L 4219 4594 
L 3897 3297 
L 4872 3297 
L 4872 2816 
L 3775 2816 
L 3519 1772 
L 4513 1772 
L 4513 1294 
L 3397 1294 
L 3072 0 
L 2572 0 
L 2894 1294 
L 1978 1294 
L 1656 0 
L 1153 0 
L 1478 1294 
L 494 1294 
L 494 1772 
L 1594 1772 
L 1856 2816 
L 850 2816 
L 850 3297 
L 1978 3297 
L 2297 4594 
L 2803 4594 
z
" transform="scale(0.015625)"/>
       <path id="DejaVuSans-20" transform="scale(0.015625)"/>
       <path id="DejaVuSans-394" d="M 2188 4044 
L 906 525 
L 3472 525 
L 2188 4044 
z
M 50 0 
L 1831 4666 
L 2547 4666 
L 4325 0 
L 50 0 
z
" transform="scale(0.015625)"/>
       <path id="DejaVuSans-Oblique-52" d="M 1613 4147 
L 1294 2491 
L 2106 2491 
Q 2584 2491 2879 2755 
Q 3175 3019 3175 3444 
Q 3175 3784 2976 3965 
Q 2778 4147 2406 4147 
L 1613 4147 
z
M 2772 2241 
Q 2972 2194 3105 2009 
Q 3238 1825 3413 1275 
L 3809 0 
L 3144 0 
L 2778 1197 
Q 2638 1659 2453 1815 
Q 2269 1972 1888 1972 
L 1191 1972 
L 806 0 
L 172 0 
L 1081 4666 
L 2503 4666 
Q 3150 4666 3495 4373 
Q 3841 4081 3841 3531 
Q 3841 3044 3547 2687 
Q 3253 2331 2772 2241 
z
" transform="scale(0.015625)"/>
       <path id="DejaVuSans-Oblique-47" d="M 3494 697 
L 3738 1919 
L 2700 1919 
L 2797 2438 
L 4453 2438 
L 4050 384 
Q 3634 156 3143 32 
Q 2653 -91 2156 -91 
Q 1278 -91 783 396 
Q 288 884 288 1753 
Q 288 2475 589 3126 
Q 891 3778 1422 4213 
Q 1756 4484 2153 4617 
Q 2550 4750 3034 4750 
Q 3472 4750 3873 4639 
Q 4275 4528 4641 4306 
L 4513 3634 
Q 4231 3928 3853 4083 
Q 3475 4238 3047 4238 
Q 2550 4238 2172 4048 
Q 1794 3859 1497 3463 
Q 1244 3125 1098 2667 
Q 953 2209 953 1734 
Q 953 1081 1287 751 
Q 1622 422 2284 422 
Q 2616 422 2925 492 
Q 3234 563 3494 697 
z
" transform="scale(0.015625)"/>
       <path id="DejaVuSans-Oblique-42" d="M 1081 4666 
L 2694 4666 
Q 3350 4666 3675 4422 
Q 4000 4178 4000 3688 
Q 4000 3238 3720 2911 
Q 3441 2584 2988 2516 
Q 3375 2428 3569 2181 
Q 3763 1934 3763 1522 
Q 3763 819 3242 409 
Q 2722 0 1819 0 
L 172 0 
L 1081 4666 
z
M 1234 2228 
L 903 519 
L 1919 519 
Q 2491 519 2800 781 
Q 3109 1044 3109 1522 
Q 3109 1891 2904 2059 
Q 2700 2228 2247 2228 
L 1234 2228 
z
M 1606 4147 
L 1331 2741 
L 2272 2741 
Q 2775 2741 3058 2959 
Q 3341 3178 3341 3566 
Q 3341 3869 3150 4008 
Q 2959 4147 2541 4147 
L 1606 4147 
z
" transform="scale(0.015625)"/>
       <path id="DejaVuSans-2c" d="M 750 794 
L 1409 794 
L 1409 256 
L 897 -744 
L 494 -744 
L 750 256 
L 750 794 
z
" transform="scale(0.015625)"/>
       <path id="DejaVuSans-Oblique-77" d="M 544 3500 
L 1113 3500 
L 1259 684 
L 2566 3500 
L 3231 3500 
L 3425 684 
L 4666 3500 
L 5241 3500 
L 3641 0 
L 2969 0 
L 2797 2900 
L 1459 0 
L 781 0 
L 544 3500 
z
" transform="scale(0.015625)"/>
       <path id="DejaVuSans-Oblique-69" d="M 1172 4863 
L 1747 4863 
L 1606 4134 
L 1031 4134 
L 1172 4863 
z
M 909 3500 
L 1484 3500 
L 800 0 
L 225 0 
L 909 3500 
z
" transform="scale(0.015625)"/>
       <path id="DejaVuSans-Oblique-74" d="M 2706 3500 
L 2619 3053 
L 1472 3053 
L 1100 1153 
Q 1081 1047 1072 975 
Q 1063 903 1063 863 
Q 1063 663 1183 572 
Q 1303 481 1569 481 
L 2150 481 
L 2053 0 
L 1503 0 
Q 991 0 739 200 
Q 488 400 488 806 
Q 488 878 497 964 
Q 506 1050 525 1153 
L 897 3053 
L 409 3053 
L 500 3500 
L 978 3500 
L 1172 4494 
L 1747 4494 
L 1556 3500 
L 2706 3500 
z
" transform="scale(0.015625)"/>
       <path id="DejaVuSans-Oblique-68" d="M 3566 2113 
L 3156 0 
L 2578 0 
L 2988 2091 
Q 3016 2238 3031 2350 
Q 3047 2463 3047 2528 
Q 3047 2791 2881 2937 
Q 2716 3084 2419 3084 
Q 1956 3084 1617 2771 
Q 1278 2459 1178 1941 
L 800 0 
L 225 0 
L 1172 4863 
L 1747 4863 
L 1375 2950 
Q 1594 3244 1934 3414 
Q 2275 3584 2650 3584 
Q 3113 3584 3367 3334 
Q 3622 3084 3622 2631 
Q 3622 2519 3608 2391 
Q 3594 2263 3566 2113 
z
" transform="scale(0.015625)"/>
       <path id="DejaVuSans-Oblique-6e" d="M 3566 2113 
L 3156 0 
L 2578 0 
L 2988 2091 
Q 3016 2238 3031 2350 
Q 3047 2463 3047 2528 
Q 3047 2791 2881 2937 
Q 2716 3084 2419 3084 
Q 1956 3084 1622 2776 
Q 1288 2469 1184 1941 
L 800 0 
L 225 0 
L 903 3500 
L 1478 3500 
L 1363 2950 
Q 1603 3253 1940 3418 
Q 2278 3584 2650 3584 
Q 3113 3584 3367 3334 
Q 3622 3084 3622 2631 
Q 3622 2519 3608 2391 
Q 3594 2263 3566 2113 
z
" transform="scale(0.015625)"/>
       <path id="DejaVuSans-2212" d="M 678 2272 
L 4684 2272 
L 4684 1741 
L 678 1741 
L 678 2272 
z
" transform="scale(0.015625)"/>
       <path id="DejaVuSans-Oblique-4e" d="M 1081 4666 
L 1931 4666 
L 3219 666 
L 4000 4666 
L 4616 4666 
L 3706 0 
L 2853 0 
L 1569 4025 
L 788 0 
L 172 0 
L 1081 4666 
z
" transform="scale(0.015625)"/>
       <path id="DejaVuSans-Oblique-4f" d="M 2919 4238 
Q 2400 4238 2003 3986 
Q 1606 3734 1313 3219 
Q 1125 2891 1026 2522 
Q 928 2153 928 1778 
Q 928 1128 1239 775 
Q 1550 422 2119 422 
Q 2631 422 3032 676 
Q 3434 931 3719 1434 
Q 3909 1772 4009 2142 
Q 4109 2513 4109 2881 
Q 4109 3528 3796 3883 
Q 3484 4238 2919 4238 
z
M 2100 -91 
Q 1241 -91 748 418 
Q 256 928 256 1813 
Q 256 2319 448 2847 
Q 641 3375 978 3788 
Q 1375 4272 1862 4511 
Q 2350 4750 2938 4750 
Q 3794 4750 4287 4245 
Q 4781 3741 4781 2869 
Q 4781 2331 4593 1812 
Q 4406 1294 4056 872 
Q 3656 384 3173 146 
Q 2691 -91 2100 -91 
z
" transform="scale(0.015625)"/>
       <path id="DejaVuSans-Oblique-45" d="M 1081 4666 
L 4031 4666 
L 3928 4134 
L 1606 4134 
L 1338 2753 
L 3566 2753 
L 3463 2222 
L 1234 2222 
L 909 531 
L 3284 531 
L 3181 0 
L 172 0 
L 1081 4666 
z
" transform="scale(0.015625)"/>
       <path id="DejaVuSans-3e" d="M 678 3150 
L 678 3719 
L 4684 2266 
L 4684 1747 
L 678 294 
L 678 863 
L 3897 2003 
L 678 3150 
z
" transform="scale(0.015625)"/>
      </defs>
      <use xlink:href="#DejaVuSans-23" transform="translate(0 0.34375)"/>
      <use xlink:href="#DejaVuSans-20" transform="translate(83.789062 0.34375)"/>
      <use xlink:href="#DejaVuSans-394" transform="translate(115.576172 0.84375)"/>
      <use xlink:href="#DejaVuSans-Oblique-52" transform="translate(184.941406 -15.5625)scale(0.7)"/>
      <use xlink:href="#DejaVuSans-Oblique-47" transform="translate(233.579102 -15.5625)scale(0.7)"/>
      <use xlink:href="#DejaVuSans-Oblique-42" transform="translate(287.822266 -15.5625)scale(0.7)"/>
      <use xlink:href="#DejaVuSans-2c" transform="translate(339.536133 -16.0625)scale(0.7)"/>
      <use xlink:href="#DejaVuSans-Oblique-77" transform="translate(375.424805 -16.0625)scale(0.7)"/>
      <use xlink:href="#DejaVuSans-Oblique-69" transform="translate(432.675781 -16.0625)scale(0.7)"/>
      <use xlink:href="#DejaVuSans-Oblique-74" transform="translate(452.124023 -16.0625)scale(0.7)"/>
      <use xlink:href="#DejaVuSans-Oblique-68" transform="translate(479.570312 -16.0625)scale(0.7)"/>
      <use xlink:href="#DejaVuSans-Oblique-69" transform="translate(523.935547 -16.0625)scale(0.7)"/>
      <use xlink:href="#DejaVuSans-Oblique-6e" transform="translate(543.383789 -16.0625)scale(0.7)"/>
      <use xlink:href="#DejaVuSans-2212" transform="translate(609.96582 0.34375)"/>
      <use xlink:href="#DejaVuSans-394" transform="translate(713.237305 0.84375)"/>
      <use xlink:href="#DejaVuSans-Oblique-52" transform="translate(782.602539 -15.5625)scale(0.7)"/>
      <use xlink:href="#DejaVuSans-Oblique-47" transform="translate(831.240234 -15.5625)scale(0.7)"/>
      <use xlink:href="#DejaVuSans-Oblique-42" transform="translate(885.483398 -15.5625)scale(0.7)"/>
      <use xlink:href="#DejaVuSans-2c" transform="translate(937.197266 -16.0625)scale(0.7)"/>
      <use xlink:href="#DejaVuSans-Oblique-77" transform="translate(973.085938 -16.0625)scale(0.7)"/>
      <use xlink:href="#DejaVuSans-Oblique-69" transform="translate(1030.336914 -16.0625)scale(0.7)"/>
      <use xlink:href="#DejaVuSans-Oblique-74" transform="translate(1049.785156 -16.0625)scale(0.7)"/>
      <use xlink:href="#DejaVuSans-Oblique-68" transform="translate(1077.231445 -16.0625)scale(0.7)"/>
      <use xlink:href="#DejaVuSans-Oblique-69" transform="translate(1121.59668 -16.0625)scale(0.7)"/>
      <use xlink:href="#DejaVuSans-Oblique-6e" transform="translate(1141.044922 -16.0625)scale(0.7)"/>
      <use xlink:href="#DejaVuSans-2c" transform="translate(1185.410156 -16.0625)scale(0.7)"/>
      <use xlink:href="#DejaVuSans-Oblique-4e" transform="translate(1221.298828 -16.0625)scale(0.7)"/>
      <use xlink:href="#DejaVuSans-Oblique-4f" transform="translate(1273.662109 -16.0625)scale(0.7)"/>
      <use xlink:href="#DejaVuSans-Oblique-4e" transform="translate(1328.759766 -16.0625)scale(0.7)"/>
      <use xlink:href="#DejaVuSans-Oblique-45" transform="translate(1381.123047 -16.0625)scale(0.7)"/>
      <use xlink:href="#DejaVuSans-3e" transform="translate(1447.568359 0.34375)"/>
      <use xlink:href="#DejaVuSans-30" transform="translate(1550.839844 0.34375)"/>
      <path d="M 115.576172 85.5 
L 115.576172 91.75 
L 338.579102 91.75 
L 338.579102 85.5 
L 115.576172 85.5 
z
"/>
      <path d="M 713.237305 85.5 
L 713.237305 91.75 
L 936.240234 91.75 
L 936.240234 85.5 
L 713.237305 85.5 
z
"/>
     </g>
    </g>
   </g>
   <g id="patch_3">
    <path d="M 53.292185 274.84495 
L 53.292185 21.621133 
" style="fill: none; stroke: #000000; stroke-width: 0.8; stroke-linejoin: miter; stroke-linecap: square"/>
   </g>
   <g id="patch_4">
    <path d="M 680.4 274.84495 
L 680.4 21.621133 
" style="fill: none; stroke: #000000; stroke-width: 0.8; stroke-linejoin: miter; stroke-linecap: square"/>
   </g>
   <g id="patch_5">
    <path d="M 53.292185 274.84495 
L 680.4 274.84495 
" style="fill: none; stroke: #000000; stroke-width: 0.8; stroke-linejoin: miter; stroke-linecap: square"/>
   </g>
   <g id="patch_6">
    <path d="M 53.292185 21.621133 
L 680.4 21.621133 
" style="fill: none; stroke: #000000; stroke-width: 0.8; stroke-linejoin: miter; stroke-linecap: square"/>
   </g>
   <g id="legend_1">
    <g id="patch_7">
     <path d="M 296.096092 68.221133 
L 437.596092 68.221133 
Q 439.596092 68.221133 439.596092 66.221133 
L 439.596092 28.621133 
Q 439.596092 26.621133 437.596092 26.621133 
L 296.096092 26.621133 
Q 294.096092 26.621133 294.096092 28.621133 
L 294.096092 66.221133 
Q 294.096092 68.221133 296.096092 68.221133 
z
" style="fill: #ffffff; opacity: 0.8; stroke: #cccccc; stroke-linejoin: miter"/>
    </g>
    <g id="patch_8">
     <path d="M 298.096092 41.821133 
L 318.096092 41.821133 
L 318.096092 34.821133 
L 298.096092 34.821133 
z
" style="fill: #ffd700"/>
    </g>
    <g id="text_30">
     <!-- $ min \left( {\Delta_{RGB}}_{,pairwise} \right)  &lt; \sqrt{3} $ -->
     <g transform="translate(326.096092 41.821133)scale(0.1 -0.1)">
      <defs>
       <path id="DejaVuSans-Oblique-6d" d="M 5747 2113 
L 5338 0 
L 4763 0 
L 5166 2094 
Q 5191 2228 5203 2325 
Q 5216 2422 5216 2491 
Q 5216 2772 5059 2928 
Q 4903 3084 4622 3084 
Q 4203 3084 3875 2770 
Q 3547 2456 3450 1953 
L 3066 0 
L 2491 0 
L 2900 2094 
Q 2925 2209 2937 2307 
Q 2950 2406 2950 2484 
Q 2950 2769 2794 2926 
Q 2638 3084 2363 3084 
Q 1938 3084 1609 2770 
Q 1281 2456 1184 1953 
L 800 0 
L 225 0 
L 909 3500 
L 1484 3500 
L 1375 2956 
Q 1609 3263 1923 3423 
Q 2238 3584 2597 3584 
Q 2978 3584 3223 3384 
Q 3469 3184 3519 2828 
Q 3781 3197 4126 3390 
Q 4472 3584 4856 3584 
Q 5306 3584 5551 3325 
Q 5797 3066 5797 2591 
Q 5797 2488 5784 2364 
Q 5772 2241 5747 2113 
z
" transform="scale(0.015625)"/>
       <path id="STIXSizeOneSym-Regular-28" d="M 2445 -858 
L 2445 -1050 
Q 1728 -371 1309 630 
Q 890 1632 890 2886 
Q 890 4122 1309 5136 
Q 1728 6150 2445 6822 
L 2445 6630 
Q 1408 5363 1408 2886 
Q 1408 410 2445 -858 
z
" transform="scale(0.015625)"/>
       <path id="DejaVuSans-Oblique-70" d="M 3175 2156 
Q 3175 2616 2975 2859 
Q 2775 3103 2400 3103 
Q 2144 3103 1911 2972 
Q 1678 2841 1497 2591 
Q 1319 2344 1212 1994 
Q 1106 1644 1106 1300 
Q 1106 863 1306 627 
Q 1506 391 1875 391 
Q 2147 391 2380 519 
Q 2613 647 2778 891 
Q 2956 1147 3065 1494 
Q 3175 1841 3175 2156 
z
M 1394 2969 
Q 1625 3272 1939 3428 
Q 2253 3584 2638 3584 
Q 3175 3584 3472 3232 
Q 3769 2881 3769 2247 
Q 3769 1728 3584 1258 
Q 3400 788 3053 416 
Q 2822 169 2531 39 
Q 2241 -91 1919 -91 
Q 1547 -91 1294 64 
Q 1041 219 916 525 
L 556 -1331 
L -19 -1331 
L 922 3500 
L 1497 3500 
L 1394 2969 
z
" transform="scale(0.015625)"/>
       <path id="DejaVuSans-Oblique-61" d="M 3438 1997 
L 3047 0 
L 2472 0 
L 2578 531 
Q 2325 219 2001 64 
Q 1678 -91 1281 -91 
Q 834 -91 548 182 
Q 263 456 263 884 
Q 263 1497 752 1853 
Q 1241 2209 2100 2209 
L 2900 2209 
L 2931 2363 
Q 2938 2388 2941 2417 
Q 2944 2447 2944 2509 
Q 2944 2788 2717 2942 
Q 2491 3097 2081 3097 
Q 1800 3097 1504 3025 
Q 1209 2953 897 2809 
L 997 3341 
Q 1322 3463 1633 3523 
Q 1944 3584 2234 3584 
Q 2853 3584 3176 3315 
Q 3500 3047 3500 2534 
Q 3500 2431 3484 2292 
Q 3469 2153 3438 1997 
z
M 2816 1759 
L 2241 1759 
Q 1534 1759 1195 1570 
Q 856 1381 856 984 
Q 856 709 1029 553 
Q 1203 397 1509 397 
Q 1978 397 2328 733 
Q 2678 1069 2791 1631 
L 2816 1759 
z
" transform="scale(0.015625)"/>
       <path id="DejaVuSans-Oblique-72" d="M 2853 2969 
Q 2766 3016 2653 3041 
Q 2541 3066 2413 3066 
Q 1953 3066 1609 2717 
Q 1266 2369 1153 1784 
L 800 0 
L 225 0 
L 909 3500 
L 1484 3500 
L 1375 2956 
Q 1603 3259 1920 3421 
Q 2238 3584 2597 3584 
Q 2691 3584 2781 3573 
Q 2872 3563 2963 3538 
L 2853 2969 
z
" transform="scale(0.015625)"/>
       <path id="DejaVuSans-Oblique-73" d="M 3200 3397 
L 3091 2853 
Q 2863 2978 2609 3040 
Q 2356 3103 2088 3103 
Q 1634 3103 1373 2948 
Q 1113 2794 1113 2528 
Q 1113 2219 1719 2053 
Q 1766 2041 1788 2034 
L 1972 1978 
Q 2547 1819 2739 1644 
Q 2931 1469 2931 1166 
Q 2931 609 2489 259 
Q 2047 -91 1331 -91 
Q 1053 -91 747 -37 
Q 441 16 72 128 
L 184 722 
Q 500 559 806 475 
Q 1113 391 1394 391 
Q 1816 391 2080 572 
Q 2344 753 2344 1031 
Q 2344 1331 1650 1516 
L 1591 1531 
L 1394 1581 
Q 956 1697 753 1886 
Q 550 2075 550 2369 
Q 550 2928 970 3256 
Q 1391 3584 2113 3584 
Q 2397 3584 2667 3537 
Q 2938 3491 3200 3397 
z
" transform="scale(0.015625)"/>
       <path id="DejaVuSans-Oblique-65" d="M 3078 2063 
Q 3088 2113 3092 2166 
Q 3097 2219 3097 2272 
Q 3097 2653 2873 2875 
Q 2650 3097 2266 3097 
Q 1838 3097 1509 2826 
Q 1181 2556 1013 2059 
L 3078 2063 
z
M 3578 1613 
L 903 1613 
Q 884 1494 878 1425 
Q 872 1356 872 1306 
Q 872 872 1139 634 
Q 1406 397 1894 397 
Q 2269 397 2603 481 
Q 2938 566 3225 728 
L 3116 159 
Q 2806 34 2476 -28 
Q 2147 -91 1806 -91 
Q 1078 -91 686 257 
Q 294 606 294 1247 
Q 294 1794 489 2264 
Q 684 2734 1063 3103 
Q 1306 3334 1642 3459 
Q 1978 3584 2356 3584 
Q 2950 3584 3301 3228 
Q 3653 2872 3653 2272 
Q 3653 2128 3634 1964 
Q 3616 1800 3578 1613 
z
" transform="scale(0.015625)"/>
       <path id="STIXSizeOneSym-Regular-29" d="M 550 6630 
L 550 6822 
Q 1267 6144 1686 5142 
Q 2106 4141 2106 2886 
Q 2106 1651 1686 636 
Q 1267 -378 550 -1050 
L 550 -858 
Q 1587 410 1587 2886 
Q 1587 5363 550 6630 
z
" transform="scale(0.015625)"/>
       <path id="DejaVuSans-3c" d="M 4684 3150 
L 1459 2003 
L 4684 863 
L 4684 294 
L 678 1747 
L 678 2266 
L 4684 3719 
L 4684 3150 
z
" transform="scale(0.015625)"/>
       <path id="STIXSizeOneSym-Regular-221a" d="M 6970 9933 
L 3373 -1888 
L 3104 -1888 
L 1626 2918 
Q 1555 3149 1465 3251 
Q 1376 3354 1229 3354 
Q 1011 3354 794 3181 
L 717 3309 
L 1766 4115 
L 1926 4115 
L 3379 -602 
L 3405 -602 
L 6605 9933 
L 6970 9933 
z
" transform="scale(0.015625)"/>
      </defs>
      <use xlink:href="#DejaVuSans-Oblique-6d" transform="translate(0 0.296875)"/>
      <use xlink:href="#DejaVuSans-Oblique-69" transform="translate(97.412109 0.296875)"/>
      <use xlink:href="#DejaVuSans-Oblique-6e" transform="translate(125.195312 0.296875)"/>
      <use xlink:href="#STIXSizeOneSym-Regular-28" transform="translate(188.574219 -16.885938)scale(0.844474)"/>
      <use xlink:href="#DejaVuSans-394" transform="translate(228.120224 0.296875)"/>
      <use xlink:href="#DejaVuSans-Oblique-52" transform="translate(297.485458 -16.109375)scale(0.7)"/>
      <use xlink:href="#DejaVuSans-Oblique-47" transform="translate(346.123154 -16.109375)scale(0.7)"/>
      <use xlink:href="#DejaVuSans-Oblique-42" transform="translate(400.366318 -16.109375)scale(0.7)"/>
      <use xlink:href="#DejaVuSans-2c" transform="translate(452.080185 -16.109375)scale(0.7)"/>
      <use xlink:href="#DejaVuSans-Oblique-70" transform="translate(487.968857 -16.109375)scale(0.7)"/>
      <use xlink:href="#DejaVuSans-Oblique-61" transform="translate(532.402451 -16.109375)scale(0.7)"/>
      <use xlink:href="#DejaVuSans-Oblique-69" transform="translate(575.297958 -16.109375)scale(0.7)"/>
      <use xlink:href="#DejaVuSans-Oblique-72" transform="translate(594.746201 -16.109375)scale(0.7)"/>
      <use xlink:href="#DejaVuSans-Oblique-77" transform="translate(623.525497 -16.109375)scale(0.7)"/>
      <use xlink:href="#DejaVuSans-Oblique-69" transform="translate(680.776474 -16.109375)scale(0.7)"/>
      <use xlink:href="#DejaVuSans-Oblique-73" transform="translate(700.224716 -16.109375)scale(0.7)"/>
      <use xlink:href="#DejaVuSans-Oblique-65" transform="translate(736.694443 -16.109375)scale(0.7)"/>
      <use xlink:href="#STIXSizeOneSym-Regular-29" transform="translate(782.495224 -16.885938)scale(0.844474)"/>
      <use xlink:href="#DejaVuSans-3c" transform="translate(841.523651 0.296875)"/>
      <use xlink:href="#STIXSizeOneSym-Regular-221a" transform="translate(944.795135 15.984375)scale(0.578716)"/>
      <use xlink:href="#DejaVuSans-33" transform="translate(1018.469009 0.53125)"/>
      <path d="M 1005.969009 99.5 
L 1005.969009 105.75 
L 1094.592056 105.75 
L 1094.592056 99.5 
L 1005.969009 99.5 
z
"/>
     </g>
    </g>
    <g id="patch_9">
     <path d="M 298.096092 61.121133 
L 318.096092 61.121133 
L 318.096092 54.121133 
L 298.096092 54.121133 
z
" style="fill: #8a2be2"/>
    </g>
    <g id="text_31">
     <!-- $ min \left( {\Delta_{RGB}}_{,pairwise} \right)  \geq  \sqrt{3} $ -->
     <g transform="translate(326.096092 61.121133)scale(0.1 -0.1)">
      <defs>
       <path id="DejaVuSans-2265" d="M 678 3175 
L 678 3725 
L 4684 2578 
L 4684 2047 
L 678 897 
L 678 1453 
L 3681 2309 
L 678 3175 
z
M 4684 531 
L 4684 0 
L 678 0 
L 678 531 
L 4684 531 
z
" transform="scale(0.015625)"/>
      </defs>
      <use xlink:href="#DejaVuSans-Oblique-6d" transform="translate(0 0.296875)"/>
      <use xlink:href="#DejaVuSans-Oblique-69" transform="translate(97.412109 0.296875)"/>
      <use xlink:href="#DejaVuSans-Oblique-6e" transform="translate(125.195312 0.296875)"/>
      <use xlink:href="#STIXSizeOneSym-Regular-28" transform="translate(188.574219 -16.885938)scale(0.844474)"/>
      <use xlink:href="#DejaVuSans-394" transform="translate(228.120224 0.296875)"/>
      <use xlink:href="#DejaVuSans-Oblique-52" transform="translate(297.485458 -16.109375)scale(0.7)"/>
      <use xlink:href="#DejaVuSans-Oblique-47" transform="translate(346.123154 -16.109375)scale(0.7)"/>
      <use xlink:href="#DejaVuSans-Oblique-42" transform="translate(400.366318 -16.109375)scale(0.7)"/>
      <use xlink:href="#DejaVuSans-2c" transform="translate(452.080185 -16.109375)scale(0.7)"/>
      <use xlink:href="#DejaVuSans-Oblique-70" transform="translate(487.968857 -16.109375)scale(0.7)"/>
      <use xlink:href="#DejaVuSans-Oblique-61" transform="translate(532.402451 -16.109375)scale(0.7)"/>
      <use xlink:href="#DejaVuSans-Oblique-69" transform="translate(575.297958 -16.109375)scale(0.7)"/>
      <use xlink:href="#DejaVuSans-Oblique-72" transform="translate(594.746201 -16.109375)scale(0.7)"/>
      <use xlink:href="#DejaVuSans-Oblique-77" transform="translate(623.525497 -16.109375)scale(0.7)"/>
      <use xlink:href="#DejaVuSans-Oblique-69" transform="translate(680.776474 -16.109375)scale(0.7)"/>
      <use xlink:href="#DejaVuSans-Oblique-73" transform="translate(700.224716 -16.109375)scale(0.7)"/>
      <use xlink:href="#DejaVuSans-Oblique-65" transform="translate(736.694443 -16.109375)scale(0.7)"/>
      <use xlink:href="#STIXSizeOneSym-Regular-29" transform="translate(782.495224 -16.885938)scale(0.844474)"/>
      <use xlink:href="#DejaVuSans-2265" transform="translate(841.523651 0.296875)"/>
      <use xlink:href="#STIXSizeOneSym-Regular-221a" transform="translate(944.795135 15.984375)scale(0.578716)"/>
      <use xlink:href="#DejaVuSans-33" transform="translate(1018.469009 0.53125)"/>
      <path d="M 1005.969009 99.5 
L 1005.969009 105.75 
L 1094.592056 105.75 
L 1094.592056 99.5 
L 1005.969009 99.5 
z
"/>
     </g>
    </g>
   </g>
   <g id="patch_10">
    <path d="M 60.41841 59148.00568 
L 67.544635 59148.00568 
L 67.544635 59148.00568 
L 60.41841 59148.00568 
z
" clip-path="url(#peaa069d9f8)" style="fill: #ffd700"/>
   </g>
   <g id="patch_11">
    <path d="M 88.923311 59148.00568 
L 96.049536 59148.00568 
L 96.049536 59148.00568 
L 88.923311 59148.00568 
z
" clip-path="url(#peaa069d9f8)" style="fill: #ffd700"/>
   </g>
   <g id="patch_12">
    <path d="M 117.428211 59148.00568 
L 124.554436 59148.00568 
L 124.554436 68.725581 
L 117.428211 68.725581 
z
" clip-path="url(#peaa069d9f8)" style="fill: #ffd700"/>
   </g>
   <g id="patch_13">
    <path d="M 145.933112 59148.00568 
L 153.059337 59148.00568 
L 153.059337 67.081456 
L 145.933112 67.081456 
z
" clip-path="url(#peaa069d9f8)" style="fill: #ffd700"/>
   </g>
   <g id="patch_14">
    <path d="M 174.438013 59148.00568 
L 181.564238 59148.00568 
L 181.564238 182.061491 
L 174.438013 182.061491 
z
" clip-path="url(#peaa069d9f8)" style="fill: #ffd700"/>
   </g>
   <g id="patch_15">
    <path d="M 202.942913 59148.00568 
L 210.069139 59148.00568 
L 210.069139 207.14452 
L 202.942913 207.14452 
z
" clip-path="url(#peaa069d9f8)" style="fill: #ffd700"/>
   </g>
   <g id="patch_16">
    <path d="M 231.447814 59148.00568 
L 238.574039 59148.00568 
L 238.574039 263.334776 
L 231.447814 263.334776 
z
" clip-path="url(#peaa069d9f8)" style="fill: #ffd700"/>
   </g>
   <g id="patch_17">
    <path d="M 259.952715 59148.00568 
L 267.07894 59148.00568 
L 267.07894 245.608724 
L 259.952715 245.608724 
z
" clip-path="url(#peaa069d9f8)" style="fill: #ffd700"/>
   </g>
   <g id="patch_18">
    <path d="M 288.457615 59148.00568 
L 295.583841 59148.00568 
L 295.583841 183.149881 
L 288.457615 183.149881 
z
" clip-path="url(#peaa069d9f8)" style="fill: #ffd700"/>
   </g>
   <g id="patch_19">
    <path d="M 316.962516 59148.00568 
L 324.088741 59148.00568 
L 324.088741 134.523338 
L 316.962516 134.523338 
z
" clip-path="url(#peaa069d9f8)" style="fill: #ffd700"/>
   </g>
   <g id="patch_20">
    <path d="M 345.467417 59148.00568 
L 352.593642 59148.00568 
L 352.593642 245.608724 
L 345.467417 245.608724 
z
" clip-path="url(#peaa069d9f8)" style="fill: #ffd700"/>
   </g>
   <g id="patch_21">
    <path d="M 373.972318 59148.00568 
L 381.098543 59148.00568 
L 381.098543 263.334776 
L 373.972318 263.334776 
z
" clip-path="url(#peaa069d9f8)" style="fill: #ffd700"/>
   </g>
   <g id="patch_22">
    <path d="M 402.477218 59148.00568 
L 409.603443 59148.00568 
L 409.603443 245.608724 
L 402.477218 245.608724 
z
" clip-path="url(#peaa069d9f8)" style="fill: #ffd700"/>
   </g>
   <g id="patch_23">
    <path d="M 430.982119 59148.00568 
L 438.108344 59148.00568 
L 438.108344 217.513596 
L 430.982119 217.513596 
z
" clip-path="url(#peaa069d9f8)" style="fill: #ffd700"/>
   </g>
   <g id="patch_24">
    <path d="M 459.48702 59148.00568 
L 466.613245 59148.00568 
L 466.613245 165.423828 
L 459.48702 165.423828 
z
" clip-path="url(#peaa069d9f8)" style="fill: #ffd700"/>
   </g>
   <g id="patch_25">
    <path d="M 487.99192 59148.00568 
L 495.118145 59148.00568 
L 495.118145 185.476328 
L 487.99192 185.476328 
z
" clip-path="url(#peaa069d9f8)" style="fill: #ffd700"/>
   </g>
   <g id="patch_26">
    <path d="M 516.496821 59148.00568 
L 523.623046 59148.00568 
L 523.623046 106.42821 
L 516.496821 106.42821 
z
" clip-path="url(#peaa069d9f8)" style="fill: #ffd700"/>
   </g>
   <g id="patch_27">
    <path d="M 545.001722 59148.00568 
L 552.127947 59148.00568 
L 552.127947 128.750486 
L 545.001722 128.750486 
z
" clip-path="url(#peaa069d9f8)" style="fill: #ffd700"/>
   </g>
   <g id="patch_28">
    <path d="M 573.506622 59148.00568 
L 580.632848 59148.00568 
L 580.632848 33.131306 
L 573.506622 33.131306 
z
" clip-path="url(#peaa069d9f8)" style="fill: #ffd700"/>
   </g>
   <g id="patch_29">
    <path d="M 602.011523 59148.00568 
L 609.137748 59148.00568 
L 609.137748 39.48633 
L 602.011523 39.48633 
z
" clip-path="url(#peaa069d9f8)" style="fill: #ffd700"/>
   </g>
   <g id="patch_30">
    <path d="M 630.516424 59148.00568 
L 637.642649 59148.00568 
L 637.642649 263.334776 
L 630.516424 263.334776 
z
" clip-path="url(#peaa069d9f8)" style="fill: #ffd700"/>
   </g>
   <g id="patch_31">
    <path d="M 659.021324 59148.00568 
L 666.14755 59148.00568 
L 666.14755 263.334776 
L 659.021324 263.334776 
z
" clip-path="url(#peaa069d9f8)" style="fill: #ffd700"/>
   </g>
   <g id="patch_32">
    <path d="M 67.544635 59148.00568 
L 74.67086 59148.00568 
L 74.67086 59148.00568 
L 67.544635 59148.00568 
z
" clip-path="url(#peaa069d9f8)" style="fill: #8a2be2"/>
   </g>
   <g id="patch_33">
    <path d="M 96.049536 59148.00568 
L 103.175761 59148.00568 
L 103.175761 59148.00568 
L 96.049536 59148.00568 
z
" clip-path="url(#peaa069d9f8)" style="fill: #8a2be2"/>
   </g>
   <g id="patch_34">
    <path d="M 124.554436 59148.00568 
L 131.680662 59148.00568 
L 131.680662 54.63619 
L 124.554436 54.63619 
z
" clip-path="url(#peaa069d9f8)" style="fill: #8a2be2"/>
   </g>
   <g id="patch_35">
    <path d="M 153.059337 59148.00568 
L 160.185562 59148.00568 
L 160.185562 106.931308 
L 153.059337 106.931308 
z
" clip-path="url(#peaa069d9f8)" style="fill: #8a2be2"/>
   </g>
   <g id="patch_36">
    <path d="M 181.564238 59148.00568 
L 188.690463 59148.00568 
L 188.690463 195.845404 
L 181.564238 195.845404 
z
" clip-path="url(#peaa069d9f8)" style="fill: #8a2be2"/>
   </g>
   <g id="patch_37">
    <path d="M 210.069139 59148.00568 
L 217.195364 59148.00568 
L 217.195364 204.450105 
L 210.069139 204.450105 
z
" clip-path="url(#peaa069d9f8)" style="fill: #8a2be2"/>
   </g>
   <g id="patch_38">
    <path d="M 238.574039 59148.00568 
L 245.700264 59148.00568 
L 245.700264 210.15662 
L 238.574039 210.15662 
z
" clip-path="url(#peaa069d9f8)" style="fill: #8a2be2"/>
   </g>
   <g id="patch_39">
    <path d="M 267.07894 59148.00568 
L 274.205165 59148.00568 
L 274.205165 210.15662 
L 267.07894 210.15662 
z
" clip-path="url(#peaa069d9f8)" style="fill: #8a2be2"/>
   </g>
   <g id="patch_40">
    <path d="M 295.583841 59148.00568 
L 302.710066 59148.00568 
L 302.710066 199.787544 
L 295.583841 199.787544 
z
" clip-path="url(#peaa069d9f8)" style="fill: #8a2be2"/>
   </g>
   <g id="patch_41">
    <path d="M 324.088741 59148.00568 
L 331.214967 59148.00568 
L 331.214967 184.286658 
L 324.088741 184.286658 
z
" clip-path="url(#peaa069d9f8)" style="fill: #8a2be2"/>
   </g>
   <g id="patch_42">
    <path d="M 352.593642 59148.00568 
L 359.719867 59148.00568 
L 359.719867 210.15662 
L 352.593642 210.15662 
z
" clip-path="url(#peaa069d9f8)" style="fill: #8a2be2"/>
   </g>
   <g id="patch_43">
    <path d="M 381.098543 59148.00568 
L 388.224768 59148.00568 
L 388.224768 210.15662 
L 381.098543 210.15662 
z
" clip-path="url(#peaa069d9f8)" style="fill: #8a2be2"/>
   </g>
   <g id="patch_44">
    <path d="M 409.603443 59148.00568 
L 416.729669 59148.00568 
L 416.729669 207.14452 
L 409.603443 207.14452 
z
" clip-path="url(#peaa069d9f8)" style="fill: #8a2be2"/>
   </g>
   <g id="patch_45">
    <path d="M 438.108344 59148.00568 
L 445.234569 59148.00568 
L 445.234569 204.450105 
L 438.108344 204.450105 
z
" clip-path="url(#peaa069d9f8)" style="fill: #8a2be2"/>
   </g>
   <g id="patch_46">
    <path d="M 466.613245 59148.00568 
L 473.73947 59148.00568 
L 473.73947 204.450105 
L 466.613245 204.450105 
z
" clip-path="url(#peaa069d9f8)" style="fill: #8a2be2"/>
   </g>
   <g id="patch_47">
    <path d="M 495.118145 59148.00568 
L 502.244371 59148.00568 
L 502.244371 210.15662 
L 495.118145 210.15662 
z
" clip-path="url(#peaa069d9f8)" style="fill: #8a2be2"/>
   </g>
   <g id="patch_48">
    <path d="M 523.623046 59148.00568 
L 530.749271 59148.00568 
L 530.749271 152.922411 
L 523.623046 152.922411 
z
" clip-path="url(#peaa069d9f8)" style="fill: #8a2be2"/>
   </g>
   <g id="patch_49">
    <path d="M 552.127947 59148.00568 
L 559.254172 59148.00568 
L 559.254172 134.68994 
L 552.127947 134.68994 
z
" clip-path="url(#peaa069d9f8)" style="fill: #8a2be2"/>
   </g>
   <g id="patch_50">
    <path d="M 580.632848 59148.00568 
L 587.759073 59148.00568 
L 587.759073 192.430567 
L 580.632848 192.430567 
z
" clip-path="url(#peaa069d9f8)" style="fill: #8a2be2"/>
   </g>
   <g id="patch_51">
    <path d="M 609.137748 59148.00568 
L 616.263973 59148.00568 
L 616.263973 178.119352 
L 609.137748 178.119352 
z
" clip-path="url(#peaa069d9f8)" style="fill: #8a2be2"/>
   </g>
   <g id="patch_52">
    <path d="M 637.642649 59148.00568 
L 644.768874 59148.00568 
L 644.768874 210.15662 
L 637.642649 210.15662 
z
" clip-path="url(#peaa069d9f8)" style="fill: #8a2be2"/>
   </g>
   <g id="patch_53">
    <path d="M 666.14755 59148.00568 
L 673.273775 59148.00568 
L 673.273775 207.14452 
L 666.14755 207.14452 
z
" clip-path="url(#peaa069d9f8)" style="fill: #8a2be2"/>
   </g>
   <g id="text_32">
    <!-- 9.7% -->
    <g transform="translate(120.335992 49.113199)rotate(-45)scale(0.06 -0.06)">
     <defs>
      <path id="DejaVuSans-39" d="M 703 97 
L 703 672 
Q 941 559 1184 500 
Q 1428 441 1663 441 
Q 2288 441 2617 861 
Q 2947 1281 2994 2138 
Q 2813 1869 2534 1725 
Q 2256 1581 1919 1581 
Q 1219 1581 811 2004 
Q 403 2428 403 3163 
Q 403 3881 828 4315 
Q 1253 4750 1959 4750 
Q 2769 4750 3195 4129 
Q 3622 3509 3622 2328 
Q 3622 1225 3098 567 
Q 2575 -91 1691 -91 
Q 1453 -91 1209 -44 
Q 966 3 703 97 
z
M 1959 2075 
Q 2384 2075 2632 2365 
Q 2881 2656 2881 3163 
Q 2881 3666 2632 3958 
Q 2384 4250 1959 4250 
Q 1534 4250 1286 3958 
Q 1038 3666 1038 3163 
Q 1038 2656 1286 2365 
Q 1534 2075 1959 2075 
z
" transform="scale(0.015625)"/>
      <path id="DejaVuSans-2e" d="M 684 794 
L 1344 794 
L 1344 0 
L 684 0 
L 684 794 
z
" transform="scale(0.015625)"/>
      <path id="DejaVuSans-37" d="M 525 4666 
L 3525 4666 
L 3525 4397 
L 1831 0 
L 1172 0 
L 2766 4134 
L 525 4134 
L 525 4666 
z
" transform="scale(0.015625)"/>
      <path id="DejaVuSans-25" d="M 4653 2053 
Q 4381 2053 4226 1822 
Q 4072 1591 4072 1178 
Q 4072 772 4226 539 
Q 4381 306 4653 306 
Q 4919 306 5073 539 
Q 5228 772 5228 1178 
Q 5228 1588 5073 1820 
Q 4919 2053 4653 2053 
z
M 4653 2450 
Q 5147 2450 5437 2106 
Q 5728 1763 5728 1178 
Q 5728 594 5436 251 
Q 5144 -91 4653 -91 
Q 4153 -91 3862 251 
Q 3572 594 3572 1178 
Q 3572 1766 3864 2108 
Q 4156 2450 4653 2450 
z
M 1428 4353 
Q 1159 4353 1004 4120 
Q 850 3888 850 3481 
Q 850 3069 1003 2837 
Q 1156 2606 1428 2606 
Q 1700 2606 1854 2837 
Q 2009 3069 2009 3481 
Q 2009 3884 1853 4118 
Q 1697 4353 1428 4353 
z
M 4250 4750 
L 4750 4750 
L 1831 -91 
L 1331 -91 
L 4250 4750 
z
M 1428 4750 
Q 1922 4750 2215 4408 
Q 2509 4066 2509 3481 
Q 2509 2891 2217 2550 
Q 1925 2209 1428 2209 
Q 931 2209 642 2551 
Q 353 2894 353 3481 
Q 353 4063 643 4406 
Q 934 4750 1428 4750 
z
" transform="scale(0.015625)"/>
     </defs>
     <use xlink:href="#DejaVuSans-39"/>
     <use xlink:href="#DejaVuSans-2e" x="63.623047"/>
     <use xlink:href="#DejaVuSans-37" x="95.410156"/>
     <use xlink:href="#DejaVuSans-25" x="159.033203"/>
    </g>
   </g>
   <g id="text_33">
    <!-- 4.58% -->
    <g transform="translate(147.491203 61.558465)rotate(-45)scale(0.06 -0.06)">
     <defs>
      <path id="DejaVuSans-35" d="M 691 4666 
L 3169 4666 
L 3169 4134 
L 1269 4134 
L 1269 2991 
Q 1406 3038 1543 3061 
Q 1681 3084 1819 3084 
Q 2600 3084 3056 2656 
Q 3513 2228 3513 1497 
Q 3513 744 3044 326 
Q 2575 -91 1722 -91 
Q 1428 -91 1123 -41 
Q 819 9 494 109 
L 494 744 
Q 775 591 1075 516 
Q 1375 441 1709 441 
Q 2250 441 2565 725 
Q 2881 1009 2881 1497 
Q 2881 1984 2565 2268 
Q 2250 2553 1709 2553 
Q 1456 2553 1204 2497 
Q 953 2441 691 2322 
L 691 4666 
z
" transform="scale(0.015625)"/>
      <path id="DejaVuSans-38" d="M 2034 2216 
Q 1584 2216 1326 1975 
Q 1069 1734 1069 1313 
Q 1069 891 1326 650 
Q 1584 409 2034 409 
Q 2484 409 2743 651 
Q 3003 894 3003 1313 
Q 3003 1734 2745 1975 
Q 2488 2216 2034 2216 
z
M 1403 2484 
Q 997 2584 770 2862 
Q 544 3141 544 3541 
Q 544 4100 942 4425 
Q 1341 4750 2034 4750 
Q 2731 4750 3128 4425 
Q 3525 4100 3525 3541 
Q 3525 3141 3298 2862 
Q 3072 2584 2669 2484 
Q 3125 2378 3379 2068 
Q 3634 1759 3634 1313 
Q 3634 634 3220 271 
Q 2806 -91 2034 -91 
Q 1263 -91 848 271 
Q 434 634 434 1313 
Q 434 1759 690 2068 
Q 947 2378 1403 2484 
z
M 1172 3481 
Q 1172 3119 1398 2916 
Q 1625 2713 2034 2713 
Q 2441 2713 2670 2916 
Q 2900 3119 2900 3481 
Q 2900 3844 2670 4047 
Q 2441 4250 2034 4250 
Q 1625 4250 1398 4047 
Q 1172 3844 1172 3481 
z
" transform="scale(0.015625)"/>
     </defs>
     <use xlink:href="#DejaVuSans-34"/>
     <use xlink:href="#DejaVuSans-2e" x="63.623047"/>
     <use xlink:href="#DejaVuSans-35" x="95.410156"/>
     <use xlink:href="#DejaVuSans-38" x="159.033203"/>
     <use xlink:href="#DejaVuSans-25" x="222.65625"/>
    </g>
   </g>
   <g id="text_34">
    <!-- 0.067% -->
    <g transform="translate(174.646413 176.5385)rotate(-45)scale(0.06 -0.06)">
     <defs>
      <path id="DejaVuSans-36" d="M 2113 2584 
Q 1688 2584 1439 2293 
Q 1191 2003 1191 1497 
Q 1191 994 1439 701 
Q 1688 409 2113 409 
Q 2538 409 2786 701 
Q 3034 994 3034 1497 
Q 3034 2003 2786 2293 
Q 2538 2584 2113 2584 
z
M 3366 4563 
L 3366 3988 
Q 3128 4100 2886 4159 
Q 2644 4219 2406 4219 
Q 1781 4219 1451 3797 
Q 1122 3375 1075 2522 
Q 1259 2794 1537 2939 
Q 1816 3084 2150 3084 
Q 2853 3084 3261 2657 
Q 3669 2231 3669 1497 
Q 3669 778 3244 343 
Q 2819 -91 2113 -91 
Q 1303 -91 875 529 
Q 447 1150 447 2328 
Q 447 3434 972 4092 
Q 1497 4750 2381 4750 
Q 2619 4750 2861 4703 
Q 3103 4656 3366 4563 
z
" transform="scale(0.015625)"/>
     </defs>
     <use xlink:href="#DejaVuSans-30"/>
     <use xlink:href="#DejaVuSans-2e" x="63.623047"/>
     <use xlink:href="#DejaVuSans-30" x="95.410156"/>
     <use xlink:href="#DejaVuSans-36" x="159.033203"/>
     <use xlink:href="#DejaVuSans-37" x="222.65625"/>
     <use xlink:href="#DejaVuSans-25" x="286.279297"/>
    </g>
   </g>
   <g id="text_35">
    <!-- 0.033% -->
    <g transform="translate(203.151314 198.927114)rotate(-45)scale(0.06 -0.06)">
     <use xlink:href="#DejaVuSans-30"/>
     <use xlink:href="#DejaVuSans-2e" x="63.623047"/>
     <use xlink:href="#DejaVuSans-30" x="95.410156"/>
     <use xlink:href="#DejaVuSans-33" x="159.033203"/>
     <use xlink:href="#DejaVuSans-33" x="222.65625"/>
     <use xlink:href="#DejaVuSans-25" x="286.279297"/>
    </g>
   </g>
   <g id="text_36">
    <!-- 0.016% -->
    <g transform="translate(231.656215 204.633628)rotate(-45)scale(0.06 -0.06)">
     <use xlink:href="#DejaVuSans-30"/>
     <use xlink:href="#DejaVuSans-2e" x="63.623047"/>
     <use xlink:href="#DejaVuSans-30" x="95.410156"/>
     <use xlink:href="#DejaVuSans-31" x="159.033203"/>
     <use xlink:href="#DejaVuSans-36" x="222.65625"/>
     <use xlink:href="#DejaVuSans-25" x="286.279297"/>
    </g>
   </g>
   <g id="text_37">
    <!-- 0.018% -->
    <g transform="translate(260.161115 204.633628)rotate(-45)scale(0.06 -0.06)">
     <use xlink:href="#DejaVuSans-30"/>
     <use xlink:href="#DejaVuSans-2e" x="63.623047"/>
     <use xlink:href="#DejaVuSans-30" x="95.410156"/>
     <use xlink:href="#DejaVuSans-31" x="159.033203"/>
     <use xlink:href="#DejaVuSans-38" x="222.65625"/>
     <use xlink:href="#DejaVuSans-25" x="286.279297"/>
    </g>
   </g>
   <g id="text_38">
    <!-- 0.062% -->
    <g transform="translate(288.666016 177.626889)rotate(-45)scale(0.06 -0.06)">
     <use xlink:href="#DejaVuSans-30"/>
     <use xlink:href="#DejaVuSans-2e" x="63.623047"/>
     <use xlink:href="#DejaVuSans-30" x="95.410156"/>
     <use xlink:href="#DejaVuSans-36" x="159.033203"/>
     <use xlink:href="#DejaVuSans-32" x="222.65625"/>
     <use xlink:href="#DejaVuSans-25" x="286.279297"/>
    </g>
   </g>
   <g id="text_39">
    <!-- 0.309% -->
    <g transform="translate(317.170917 129.000347)rotate(-45)scale(0.06 -0.06)">
     <use xlink:href="#DejaVuSans-30"/>
     <use xlink:href="#DejaVuSans-2e" x="63.623047"/>
     <use xlink:href="#DejaVuSans-33" x="95.410156"/>
     <use xlink:href="#DejaVuSans-30" x="159.033203"/>
     <use xlink:href="#DejaVuSans-39" x="222.65625"/>
     <use xlink:href="#DejaVuSans-25" x="286.279297"/>
    </g>
   </g>
   <g id="text_40">
    <!-- 0.018% -->
    <g transform="translate(345.675818 204.633628)rotate(-45)scale(0.06 -0.06)">
     <use xlink:href="#DejaVuSans-30"/>
     <use xlink:href="#DejaVuSans-2e" x="63.623047"/>
     <use xlink:href="#DejaVuSans-30" x="95.410156"/>
     <use xlink:href="#DejaVuSans-31" x="159.033203"/>
     <use xlink:href="#DejaVuSans-38" x="222.65625"/>
     <use xlink:href="#DejaVuSans-25" x="286.279297"/>
    </g>
   </g>
   <g id="text_41">
    <!-- 0.016% -->
    <g transform="translate(374.180718 204.633628)rotate(-45)scale(0.06 -0.06)">
     <use xlink:href="#DejaVuSans-30"/>
     <use xlink:href="#DejaVuSans-2e" x="63.623047"/>
     <use xlink:href="#DejaVuSans-30" x="95.410156"/>
     <use xlink:href="#DejaVuSans-31" x="159.033203"/>
     <use xlink:href="#DejaVuSans-36" x="222.65625"/>
     <use xlink:href="#DejaVuSans-25" x="286.279297"/>
    </g>
   </g>
   <g id="text_42">
    <!-- 0.019% -->
    <g transform="translate(402.685619 201.621529)rotate(-45)scale(0.06 -0.06)">
     <use xlink:href="#DejaVuSans-30"/>
     <use xlink:href="#DejaVuSans-2e" x="63.623047"/>
     <use xlink:href="#DejaVuSans-30" x="95.410156"/>
     <use xlink:href="#DejaVuSans-31" x="159.033203"/>
     <use xlink:href="#DejaVuSans-39" x="222.65625"/>
     <use xlink:href="#DejaVuSans-25" x="286.279297"/>
    </g>
   </g>
   <g id="text_43">
    <!-- 0.028% -->
    <g transform="translate(431.19052 198.927114)rotate(-45)scale(0.06 -0.06)">
     <use xlink:href="#DejaVuSans-30"/>
     <use xlink:href="#DejaVuSans-2e" x="63.623047"/>
     <use xlink:href="#DejaVuSans-30" x="95.410156"/>
     <use xlink:href="#DejaVuSans-32" x="159.033203"/>
     <use xlink:href="#DejaVuSans-38" x="222.65625"/>
     <use xlink:href="#DejaVuSans-25" x="286.279297"/>
    </g>
   </g>
   <g id="text_44">
    <!-- 0.098% -->
    <g transform="translate(459.69542 159.900837)rotate(-45)scale(0.06 -0.06)">
     <use xlink:href="#DejaVuSans-30"/>
     <use xlink:href="#DejaVuSans-2e" x="63.623047"/>
     <use xlink:href="#DejaVuSans-30" x="95.410156"/>
     <use xlink:href="#DejaVuSans-39" x="159.033203"/>
     <use xlink:href="#DejaVuSans-38" x="222.65625"/>
     <use xlink:href="#DejaVuSans-25" x="286.279297"/>
    </g>
   </g>
   <g id="text_45">
    <!-- 0.051% -->
    <g transform="translate(488.200321 179.953337)rotate(-45)scale(0.06 -0.06)">
     <use xlink:href="#DejaVuSans-30"/>
     <use xlink:href="#DejaVuSans-2e" x="63.623047"/>
     <use xlink:href="#DejaVuSans-30" x="95.410156"/>
     <use xlink:href="#DejaVuSans-35" x="159.033203"/>
     <use xlink:href="#DejaVuSans-31" x="222.65625"/>
     <use xlink:href="#DejaVuSans-25" x="286.279297"/>
    </g>
   </g>
   <g id="text_46">
    <!-- 0.944% -->
    <g transform="translate(516.705222 100.905219)rotate(-45)scale(0.06 -0.06)">
     <use xlink:href="#DejaVuSans-30"/>
     <use xlink:href="#DejaVuSans-2e" x="63.623047"/>
     <use xlink:href="#DejaVuSans-39" x="95.410156"/>
     <use xlink:href="#DejaVuSans-34" x="159.033203"/>
     <use xlink:href="#DejaVuSans-34" x="222.65625"/>
     <use xlink:href="#DejaVuSans-25" x="286.279297"/>
    </g>
   </g>
   <g id="text_47">
    <!-- 0.608% -->
    <g transform="translate(545.210122 123.227495)rotate(-45)scale(0.06 -0.06)">
     <use xlink:href="#DejaVuSans-30"/>
     <use xlink:href="#DejaVuSans-2e" x="63.623047"/>
     <use xlink:href="#DejaVuSans-36" x="95.410156"/>
     <use xlink:href="#DejaVuSans-30" x="159.033203"/>
     <use xlink:href="#DejaVuSans-38" x="222.65625"/>
     <use xlink:href="#DejaVuSans-25" x="286.279297"/>
    </g>
   </g>
   <g id="text_48">
    <!-- 14.3% -->
    <g transform="translate(575.064713 27.608315)rotate(-45)scale(0.06 -0.06)">
     <use xlink:href="#DejaVuSans-31"/>
     <use xlink:href="#DejaVuSans-34" x="63.623047"/>
     <use xlink:href="#DejaVuSans-2e" x="127.246094"/>
     <use xlink:href="#DejaVuSans-33" x="159.033203"/>
     <use xlink:href="#DejaVuSans-25" x="222.65625"/>
    </g>
   </g>
   <g id="text_49">
    <!-- 11.2% -->
    <g transform="translate(603.569614 33.963339)rotate(-45)scale(0.06 -0.06)">
     <use xlink:href="#DejaVuSans-31"/>
     <use xlink:href="#DejaVuSans-31" x="63.623047"/>
     <use xlink:href="#DejaVuSans-2e" x="127.246094"/>
     <use xlink:href="#DejaVuSans-32" x="159.033203"/>
     <use xlink:href="#DejaVuSans-25" x="222.65625"/>
    </g>
   </g>
   <g id="text_50">
    <!-- 0.016% -->
    <g transform="translate(630.724824 204.633628)rotate(-45)scale(0.06 -0.06)">
     <use xlink:href="#DejaVuSans-30"/>
     <use xlink:href="#DejaVuSans-2e" x="63.623047"/>
     <use xlink:href="#DejaVuSans-30" x="95.410156"/>
     <use xlink:href="#DejaVuSans-31" x="159.033203"/>
     <use xlink:href="#DejaVuSans-36" x="222.65625"/>
     <use xlink:href="#DejaVuSans-25" x="286.279297"/>
    </g>
   </g>
   <g id="text_51">
    <!-- 0.018% -->
    <g transform="translate(659.229725 201.621529)rotate(-45)scale(0.06 -0.06)">
     <use xlink:href="#DejaVuSans-30"/>
     <use xlink:href="#DejaVuSans-2e" x="63.623047"/>
     <use xlink:href="#DejaVuSans-30" x="95.410156"/>
     <use xlink:href="#DejaVuSans-31" x="159.033203"/>
     <use xlink:href="#DejaVuSans-38" x="222.65625"/>
     <use xlink:href="#DejaVuSans-25" x="286.279297"/>
    </g>
   </g>
  </g>
 </g>
 <defs>
  <clipPath id="peaa069d9f8">
   <rect x="53.292185" y="21.621133" width="627.107815" height="253.223817"/>
  </clipPath>
 </defs>
</svg>
