timestamps,slides
8,1
8,2
31,3
59,4
80,5
166,6
180,7
220,8
245,9
275,10
336,11
338,12
396,13
396,12
398,13
435,14
444,15
451,16
466,17
490,18
549,19
597,20
622,21
657,22
746,23
802,24
836,25
858,26
930,27
986,28
1069,29
1205,30
1240,29
1242,30
1384,31
1585,32
1592,31
1593,32
1649,33
1696,34
1786,35
1805,36
1884,37
1892,38
1904,37
1904,36
1905,37
1905,38
1960,39
1982,40
1998,41
1999,40
2012,41
2013,40
2029,41
2083,40
2083,39
2088,40
2111,39
2112,40
2113,41
2113,42
2113,43
2113,44
2113,45
2114,44
2114,43
2114,42
2114,41
2114,40
2115,39
2115,38
2129,39
2144,40
2156,39
2165,40
2167,39
2167,38
2171,39
2171,40
2173,41
2194,42
2221,43
2239,44
2286,45
2303,46
2324,47
2403,48
2509,49
2556,50
2630,51
2671,52
2702,53
2711,54
2723,55
2725,54
2727,55
2728,54
2728,55
2777,56
2792,57
2796,58
2798,57
2798,58
2873,59
2905,58
2911,59
2974,60
3016,61
3028,62
3053,63
3140,64
3196,65
3233,66
3235,67
3235,66
3236,67
3269,68
3307,69
3388,70
3441,71
3444,72
3460,73
3471,74
3489,75
3496,76
