timestamps,slides
39.649662256240845,1
41.64877128601074,2
97.48937511444092,3
98.08937573432922,2
102.9131247997284,3
136.4417223930359,4
213.1383249759674,5
267.1067535877228,6
268.7386703491211,5
352.57905864715576,6
450.4673295021057,7
460.3793740272522,8
476.2594082355499,9
505.6034173965454,10
552.3555746078491,11
604.507538318634,12
635.4594838619232,13
687.1235013008118,14
689.4115023612976,13
700.7473831176758,14
771.2833778858185,15
781.7954342365265,16
829.4912793636322,17
856.955198764801,18
905.7151279449463,19
993.3870248794556,20
1002.5388252735138,19
1004.1388216018677,20
1005.9868083000183,21
1006.8027968406677,20
1007.3069496154785,19
1008.2908051013947,20
1016.6747872829437,21
1017.1788456439972,20
1053.090631723404,21
1121.9064350128174,22
1168.9861476421356,23
1187.9143533706665,24
1242.9057393074036,25
1280.1297805309296,24
1306.617765903473,25
1394.6572861671448,26
1426.089117527008,27
1434.7211112976074,26
1435.3450326919556,27
1549.9765665531158,28
1605.1836433410645,29
1652.2148277759552,30
1752.5812549591064,31
1928.9947855472565,32
1942.4185872077942,31
1943.530608177185,32
1944.5785710811615,31
1948.0665457248688,32
2069.088945388794,33
2214.951310157776,34
2230.599489212036,33
2231.439350128174,34
2429.7013821601868,35
2525.8844957351685,36
2568.340169429779,35
2569.1481306552887,36
2579.372061729431,37
2713.130895137787,38
2720.9389250278473,37
2727.554773569107,38
2808.7461009025574,39
2854.1137793064117,39
2854.114197254181,39
2901.1453006267548,40
2909.3293118476868,41
2996.2005565166473,42
3052.17623090744,43
3065.0319459438324,44
3067.047917366028,45
3077.775901556015,46
3078.37601518631,47
3079.0561180114746,48
3080.215888738632,49
3080.7997210025787,50
3088.087985277176,51
3093.8396756649017,52
3095.399760246277,53
3096.631694316864,52
3144.279412984848,53
3146.503488779068,52
3164.391318321228,53
3183.6632194519043,54
3194.791169166565,55
3202.6871066093445,56
3215.36692070961,57
3217.9508521556854,58
3250.9185712337494,59
3262.3824870586395,60
3336.08589553833,61
3337.7738523483276,62
3338.749873638153,63
3339.8299672603607,62
3340.253901720047,61
3351.1258471012115,60
3353.25368309021,59
3354.581716299057,58
3355.3977313041687,57
3357.50172662735,58
3357.8376879692078,59
3358.893840074539,60
3362.7417452335358,61
3363.9577491283417,62
3365.173777103424,63
3365.613834619522,64
3367.1017010211945,63
3370.5176610946655,64
3445.781123638153,63
3447.06916308403,64
3452.56507062912,65
3497.7806553840637,66
3679.6566185951233,67
3680.560502052307,66
3684.240391969681,67
3690.7361075878143,68
3735.902436733246,69
3758.6693847179413,70
3759.4453642368317,69
3760.48539018631,70
3763.1732506752014,71
3764.5412027835846,72
3769.3092801570892,73
3772.1329514980316,74
3808.5636978149414,75
3840.2104880809784,76
3852.330152273178,77
3866.9136452674866,78
3874.2653620243073,79
3877.577260494232,80
3879.833028316498,81
3896.480663537979,82
3898.984519481659,81
3899.256574869156,80
3899.656660795212,79
3899.96053147316,78
3900.2725150585175,77
3900.584513902664,76
3901.176476955414,77
3901.4004414081573,78
3901.6161589622498,79
3901.784590959549,80
3902.0083944797516,81
3902.528493642807,82
3939.8953833580017,83
3946.8394367694855,84
3949.2230126857758,83
3950.550994157791,84
3952.638969898224,85
3955.0548706054688,86
3958.222733736038,87
3968.7424240112305,88
3976.3502628803253,89
3977.3101918697357,90
3977.9582166671753,91
3979.342111349106,92
3980.7901701927185,93
3981.606137752533,94
